%YAML 1.1
%TAG !u! tag:unity3d.com,2011:
--- !u!114 &11400000
MonoBehaviour:
  m_ObjectHideFlags: 0
  m_PrefabParentObject: {fileID: 0}
  m_PrefabInternal: {fileID: 0}
  m_GameObject: {fileID: 0}
  m_Enabled: 1
  m_EditorHideFlags: 0
  m_Script: {fileID: 11500000, guid: f1b3b4b945939a54ea0b23d3396115fb, type: 3}
  m_Name: a_fire_explosion_W_SkeletonData
  m_EditorClassIdentifier: 
  atlasAssets:
  - {fileID: 11400000, guid: eadd294063f0ae447990975a149e5cad, type: 2}
  scale: 0.01
  skeletonJSON: {fileID: 4900000, guid: d8ac2cf7f91e2a8468d991086f0aac11, type: 3}
  fromAnimation: []
  toAnimation: []
  duration: []
  defaultMix: 0.2
  controller: {fileID: 0}
