{
"skeleton": { "hash": "BIf6+ByB0f7bw2nxIN/4Ztdc96I", "spine": "3.6.53", "width": 137.13, "height": 89.2, "images": "./images/" },
"bones": [
	{ "name": "root" },
	{ "name": "fire_ball", "parent": "root", "length": 128.23, "rotation": -179.96, "x": 137.76, "y": 0.39 },
	{ "name": "fire_effect", "parent": "fire_ball", "length": 158.92, "rotation": 0.17, "x": -7.95, "y": -0.53 },
	{ "name": "fire_effect2", "parent": "fire_ball", "length": 158.92, "rotation": 0.17, "x": -7.95, "y": -0.53 }
],
"slots": [
	{ "name": "fire_ball", "bone": "fire_ball", "attachment": "fire_ball" },
	{ "name": "fire_effect", "bone": "fire_effect", "attachment": "fire_effect" },
	{ "name": "fire_effect2", "bone": "fire_effect2", "attachment": "fire_effect" }
],
"skins": {
	"default": {
		"fire_ball": {
			"fire_ball": {
				"type": "mesh",
				"uvs": [ 1, 0.3395, 1, 1, 0.52016, 1, 0, 1, 0, 0.65712, 0, 0.42216, 0, 0.25054, 0, 0, 0.52188, 0, 0.73271, 0, 1, 0, 0.93637, 0.1469, 0.41558, 0.02789, 0.26438, 0.07706, 0.3396, 0.12442, 0.2691, 0.21169, 0.17738, 0.15512, 0.15648, 0.33601, 0.18958, 0.4323, 0.05402, 0.53686, 0.23372, 0.56816, 0.13762, 0.71357, 0.07627, 0.78102, 0.22938, 0.80445, 0.34297, 0.73029, 0.37055, 0.81339, 0.21845, 0.87047, 0.39632, 0.90706, 0.78408, 0.92471, 0.91412, 0.79375, 0.16554, 0.23171, 0.28479, 0.31725, 0.19778, 0.38344, 0.34354, 0.39897, 0.29139, 0.4928, 0.42519, 0.45687, 0.22648, 0.66058, 0.44273, 0.57432, 0.26505, 0.72781, 0.45379, 0.64161, 0.41816, 0.75653, 0.58308, 0.67566, 0.45585, 0.86073, 0.6456, 0.86032, 0.38356, 0.09132, 0.55508, 0.186, 0.46577, 0.26486, 0.56018, 0.37815, 0.67149, 0.50559, 0.58728, 0.55808, 0.60256, 0.6092 ],
				"triangles": [ 12, 7, 8, 13, 7, 12, 44, 13, 12, 14, 13, 44, 11, 9, 10, 16, 7, 13, 45, 8, 9, 12, 8, 45, 44, 12, 45, 15, 13, 14, 16, 13, 15, 16, 6, 7, 30, 16, 15, 30, 6, 16, 46, 44, 45, 14, 44, 46, 15, 14, 46, 31, 15, 46, 30, 15, 31, 17, 6, 30, 17, 30, 31, 11, 10, 0, 11, 47, 45, 11, 45, 9, 48, 47, 11, 46, 45, 47, 32, 17, 31, 33, 31, 46, 33, 46, 47, 32, 31, 33, 5, 6, 17, 5, 17, 32, 18, 5, 32, 35, 33, 47, 34, 32, 33, 34, 33, 35, 18, 32, 34, 0, 48, 11, 35, 47, 48, 19, 5, 18, 19, 18, 34, 49, 35, 48, 20, 19, 34, 37, 35, 49, 34, 35, 37, 50, 49, 48, 39, 37, 49, 39, 49, 50, 4, 5, 19, 4, 19, 20, 36, 4, 20, 37, 36, 20, 37, 20, 34, 41, 39, 50, 21, 4, 36, 39, 38, 36, 39, 36, 37, 21, 36, 38, 24, 38, 39, 40, 24, 39, 40, 39, 41, 22, 4, 21, 22, 21, 38, 29, 48, 0, 50, 48, 29, 41, 50, 29, 23, 22, 38, 23, 38, 24, 23, 24, 40, 25, 23, 40, 43, 41, 29, 42, 40, 41, 43, 42, 41, 25, 40, 42, 26, 22, 23, 26, 23, 25, 26, 25, 42, 27, 26, 42, 28, 43, 29, 3, 4, 22, 3, 22, 26, 2, 42, 43, 27, 42, 2, 3, 26, 27, 2, 3, 27, 2, 43, 28, 29, 0, 1, 28, 29, 1, 2, 28, 1 ],
				"vertices": [ -3.67, -12.65, -3.57, 36.89, 48.25, 36.78, 104.43, 36.66, 104.38, 10.94, 104.34, -6.68, 104.31, -19.55, 104.27, -38.34, 47.91, -38.22, 25.14, -38.17, -3.73, -38.11, 3.17, -27.11, 59.39, -36.15, 75.73, -32.5, 67.62, -28.93, 75.24, -22.4, 85.14, -26.66, 87.43, -13.1, 83.87, -5.87, 98.52, 1.94, 79.12, 4.33, 89.52, 15.21, 96.16, 20.25, 79.63, 22.05, 67.35, 16.51, 64.38, 22.75, 80.82, 27, 61.61, 29.78, 19.74, 31.19, 5.67, 21.4, 86.43, -20.92, 73.56, -14.48, 82.97, -9.54, 67.23, -8.34, 72.88, -1.31, 58.42, -3.98, 79.92, 11.26, 56.55, 4.84, 75.76, 16.31, 55.36, 9.89, 59.23, 18.5, 41.41, 12.47, 55.18, 26.32, 34.68, 26.33, 62.86, -31.4, 44.35, -24.26, 54.01, -18.37, 43.83, -9.85, 31.83, -0.27, 40.93, 3.65, 39.29, 7.49 ],
				"hull": 11,
				"edges": [ 2, 0, 0, 20, 0, 22, 18, 20, 22, 18, 14, 16, 16, 18, 16, 24, 24, 26, 26, 28, 28, 30, 30, 32, 12, 14, 32, 12, 12, 34, 10, 12, 34, 10, 10, 36, 36, 38, 38, 40, 6, 8, 8, 10, 40, 8, 8, 42, 42, 44, 44, 46, 46, 48, 46, 50, 50, 52, 52, 54, 2, 4, 4, 6, 54, 4, 4, 56, 56, 58, 58, 0, 12, 60, 60, 62, 10, 64, 64, 66, 38, 68, 68, 70, 8, 72, 72, 74, 44, 76, 76, 78, 46, 80, 80, 82, 52, 84, 84, 86, 26, 88, 88, 90, 62, 92, 66, 94, 70, 96, 74, 98, 78, 100 ],
				"width": 108,
				"height": 75
			}
		},
		"fire_effect": {
			"fire_effect": {
				"type": "mesh",
				"uvs": [ 1, 0.28718, 1, 0.48658, 1, 1, 0.63818, 1, 0, 1, 0, 0.70262, 0, 0, 0.51632, 0, 1, 0, 0.76515, 0.94851, 0.82856, 0.85974, 0.9064, 0.797, 0.8625, 0.93265, 0.55091, 0.92814, 0.71772, 0.93428, 0.26287, 0.76849, 0.39827, 0.68867, 0.53548, 0.73007, 0.41192, 0.7903, 0.28725, 0.58726, 0.41334, 0.50617, 0.55226, 0.57363, 0.60045, 0.49271, 0.71977, 0.42336, 0.84935, 0.45956, 0.70547, 0.52766, 0.66012, 0.03639, 0.79475, 0.03348, 0.85244, 0.15586, 0.9287, 0.20783, 0.94323, 0.35116, 0.84795, 0.76194, 0.89774, 0.58978, 0.97559, 0.54138, 0.92328, 0.7344, 0.13046, 0.4234, 0.24045, 0.34625, 0.33028, 0.42294, 0.24734, 0.46744, 0.07411, 0.6451, 0.17066, 0.67094, 0.07167, 0.74807, 0.06181, 0.18764, 0.1676, 0.12745, 0.2828, 0.17932, 0.1423, 0.2409, 0.238, 0.26023, 0.38441, 0.18691, 0.5123, 0.22572, 0.3811, 0.26512, 0.40884, 0.06173, 0.5951, 0.03915, 0.48086, 0.10718 ],
				"triangles": [ 27, 7, 8, 26, 7, 27, 51, 7, 26, 50, 6, 7, 52, 50, 7, 52, 7, 51, 43, 6, 50, 28, 27, 8, 26, 27, 28, 44, 43, 50, 47, 44, 50, 47, 50, 52, 42, 6, 43, 29, 28, 8, 48, 52, 51, 47, 52, 48, 45, 42, 43, 45, 43, 44, 46, 45, 44, 46, 44, 47, 49, 46, 47, 49, 47, 48, 29, 8, 0, 36, 46, 49, 30, 29, 0, 37, 36, 49, 28, 48, 26, 30, 23, 28, 30, 28, 29, 35, 42, 45, 36, 35, 45, 36, 45, 46, 24, 23, 30, 38, 36, 37, 35, 36, 38, 30, 0, 1, 24, 30, 1, 23, 48, 28, 26, 48, 51, 22, 48, 23, 20, 49, 48, 20, 48, 22, 37, 49, 20, 25, 22, 23, 25, 23, 24, 33, 24, 1, 21, 20, 22, 19, 38, 37, 19, 37, 20, 19, 20, 21, 32, 24, 33, 25, 24, 32, 35, 5, 42, 39, 35, 38, 40, 39, 38, 19, 40, 38, 16, 19, 21, 5, 6, 42, 39, 5, 35, 17, 16, 21, 34, 32, 33, 41, 5, 39, 41, 39, 40, 31, 25, 32, 31, 32, 34, 15, 40, 19, 15, 19, 16, 18, 16, 17, 15, 16, 18, 11, 31, 34, 25, 17, 21, 10, 31, 11, 31, 13, 17, 18, 17, 13, 21, 22, 25, 17, 25, 31, 31, 14, 13, 12, 10, 11, 10, 14, 31, 9, 14, 10, 12, 9, 10, 4, 5, 41, 3, 13, 14, 15, 18, 13, 4, 15, 13, 41, 40, 15, 4, 41, 15, 3, 4, 13, 33, 1, 2, 34, 33, 2, 11, 34, 2, 12, 11, 2, 9, 12, 2, 3, 14, 9, 3, 9, 2 ],
				"vertices": [ 1.74, -21.72, 1.84, -3.97, 2.07, 41.72, 51.64, 41.47, 139.07, 41.01, 138.93, 14.55, 138.61, -47.98, 67.88, -47.62, 1.61, -47.28, 34.22, 36.97, 25.49, 29.12, 14.8, 23.59, 20.88, 35.63, 63.56, 35.01, 40.71, 35.67, 102.95, 20.6, 84.36, 13.59, 65.59, 17.37, 82.54, 22.64, 99.53, 4.49, 82.22, -2.64, 63.21, 3.46, 56.58, -3.71, 40.2, -9.8, 22.46, -6.48, 42.2, -0.52, 48.19, -44.28, 29.75, -44.44, 21.9, -33.51, 11.48, -28.83, 9.55, -16.06, 22.79, 20.43, 15.89, 5.14, 5.21, 0.89, 12.46, 18.03, 120.93, -10.21, 105.83, -17, 93.56, -10.11, 104.94, -6.21, 128.75, 9.48, 115.54, 11.85, 129.14, 18.64, 130.23, -31.24, 115.71, -36.52, 99.95, -31.82, 119.23, -26.44, 106.12, -24.66, 86.03, -31.08, 68.53, -27.53, 86.52, -24.12, 82.63, -42.2, 57.1, -44.08, 72.78, -38.1 ],
				"hull": 9,
				"edges": [ 18, 20, 20, 22, 22, 24, 24, 18, 26, 28, 4, 6, 6, 8, 28, 6, 6, 26, 30, 32, 32, 34, 34, 36, 36, 30, 38, 40, 40, 42, 42, 38, 44, 46, 46, 48, 48, 50, 50, 44, 52, 54, 54, 56, 56, 52, 58, 60, 4, 2, 60, 2, 2, 0, 0, 16, 0, 58, 62, 64, 64, 66, 66, 68, 68, 62, 70, 72, 72, 74, 74, 76, 76, 70, 8, 10, 10, 12, 10, 78, 78, 80, 80, 82, 82, 10, 84, 86, 86, 88, 88, 90, 90, 84, 92, 94, 94, 96, 96, 98, 98, 92, 12, 14, 14, 16, 100, 14, 14, 102, 102, 104, 104, 100 ],
				"width": 137,
				"height": 89
			}
		},
		"fire_effect2": {
			"fire_effect": {
				"type": "mesh",
				"uvs": [ 1, 0.28718, 1, 0.48658, 1, 1, 0.63818, 1, 0, 1, 0, 0.70262, 0, 0, 0.51632, 0, 1, 0, 0.76515, 0.94851, 0.82856, 0.85974, 0.9064, 0.797, 0.8625, 0.93265, 0.55091, 0.92814, 0.71772, 0.93428, 0.26287, 0.76849, 0.39827, 0.68867, 0.53548, 0.73007, 0.41192, 0.7903, 0.28725, 0.58726, 0.41334, 0.50617, 0.55226, 0.57363, 0.60045, 0.49271, 0.71977, 0.42336, 0.84935, 0.45956, 0.70547, 0.52766, 0.66012, 0.03639, 0.79475, 0.03348, 0.85244, 0.15586, 0.9287, 0.20783, 0.94323, 0.35116, 0.84795, 0.76194, 0.89774, 0.58978, 0.97559, 0.54138, 0.92328, 0.7344, 0.13046, 0.4234, 0.24045, 0.34625, 0.33028, 0.42294, 0.24734, 0.46744, 0.07411, 0.6451, 0.17066, 0.67094, 0.07167, 0.74807, 0.06181, 0.18764, 0.1676, 0.12745, 0.2828, 0.17932, 0.1423, 0.2409, 0.238, 0.26023, 0.38441, 0.18691, 0.5123, 0.22572, 0.3811, 0.26512, 0.40884, 0.06173, 0.5951, 0.03915, 0.48086, 0.10718 ],
				"triangles": [ 27, 7, 8, 26, 7, 27, 51, 7, 26, 50, 6, 7, 52, 50, 7, 52, 7, 51, 43, 6, 50, 28, 27, 8, 26, 27, 28, 44, 43, 50, 47, 44, 50, 47, 50, 52, 42, 6, 43, 29, 28, 8, 48, 52, 51, 47, 52, 48, 45, 42, 43, 45, 43, 44, 46, 45, 44, 46, 44, 47, 49, 46, 47, 49, 47, 48, 29, 8, 0, 36, 46, 49, 30, 29, 0, 37, 36, 49, 28, 48, 26, 30, 23, 28, 30, 28, 29, 35, 42, 45, 36, 35, 45, 36, 45, 46, 24, 23, 30, 38, 36, 37, 35, 36, 38, 30, 0, 1, 24, 30, 1, 23, 48, 28, 26, 48, 51, 22, 48, 23, 20, 49, 48, 20, 48, 22, 37, 49, 20, 25, 22, 23, 25, 23, 24, 33, 24, 1, 21, 20, 22, 19, 38, 37, 19, 37, 20, 19, 20, 21, 32, 24, 33, 25, 24, 32, 35, 5, 42, 39, 35, 38, 40, 39, 38, 19, 40, 38, 16, 19, 21, 5, 6, 42, 39, 5, 35, 17, 16, 21, 34, 32, 33, 41, 5, 39, 41, 39, 40, 31, 25, 32, 31, 32, 34, 15, 40, 19, 15, 19, 16, 18, 16, 17, 15, 16, 18, 11, 31, 34, 25, 17, 21, 10, 31, 11, 31, 13, 17, 18, 17, 13, 21, 22, 25, 17, 25, 31, 31, 14, 13, 12, 10, 11, 10, 14, 31, 9, 14, 10, 12, 9, 10, 4, 5, 41, 3, 13, 14, 15, 18, 13, 4, 15, 13, 41, 40, 15, 4, 41, 15, 3, 4, 13, 33, 1, 2, 34, 33, 2, 11, 34, 2, 12, 11, 2, 9, 12, 2, 3, 14, 9, 3, 9, 2 ],
				"vertices": [ 1.74, -21.72, 1.84, -3.97, 2.07, 41.72, 51.64, 41.47, 139.07, 41.01, 138.93, 14.55, 138.61, -47.98, 67.88, -47.62, 1.61, -47.28, 34.22, 36.97, 25.49, 29.12, 14.8, 23.59, 20.88, 35.63, 63.56, 35.01, 40.71, 35.67, 102.95, 20.6, 84.36, 13.59, 65.59, 17.37, 82.54, 22.64, 99.53, 4.49, 82.22, -2.64, 63.21, 3.46, 56.58, -3.71, 40.2, -9.8, 22.46, -6.48, 42.2, -0.52, 48.19, -44.28, 29.75, -44.44, 21.9, -33.51, 11.48, -28.83, 9.55, -16.06, 22.79, 20.43, 15.89, 5.14, 5.21, 0.89, 12.46, 18.03, 120.93, -10.21, 105.83, -17, 93.56, -10.11, 104.94, -6.21, 128.75, 9.48, 115.54, 11.85, 129.14, 18.64, 130.23, -31.24, 115.71, -36.52, 99.95, -31.82, 119.23, -26.44, 106.12, -24.66, 86.03, -31.08, 68.53, -27.53, 86.52, -24.12, 82.63, -42.2, 57.1, -44.08, 72.78, -38.1 ],
				"hull": 9,
				"edges": [ 18, 20, 20, 22, 22, 24, 24, 18, 26, 28, 4, 6, 6, 8, 28, 6, 6, 26, 30, 32, 32, 34, 34, 36, 36, 30, 38, 40, 40, 42, 42, 38, 44, 46, 46, 48, 48, 50, 50, 44, 52, 54, 54, 56, 56, 52, 58, 60, 4, 2, 60, 2, 2, 0, 0, 16, 0, 58, 62, 64, 64, 66, 66, 68, 68, 62, 70, 72, 72, 74, 74, 76, 76, 70, 8, 10, 10, 12, 10, 78, 78, 80, 80, 82, 82, 10, 84, 86, 86, 88, 88, 90, 90, 84, 92, 94, 94, 96, 96, 98, 98, 92, 12, 14, 14, 16, 100, 14, 14, 102, 102, 104, 104, 100 ],
				"width": 137,
				"height": 89
			}
		}
	}
},
"animations": {
	"animation": {
		"bones": {
			"fire_ball": {
				"rotate": [
					{ "time": 0, "angle": 1.84 },
					{ "time": 0.1667, "angle": 358.5 },
					{ "time": 0.3333, "angle": 1.48 },
					{ "time": 0.5, "angle": 358.58 },
					{ "time": 0.6667, "angle": 1.48 },
					{ "time": 0.8333, "angle": 358.44 },
					{ "time": 1, "angle": 1.84 }
				]
			}
		},
		"deform": {
			"default": {
				"fire_ball": {
					"fire_ball": [
						{ "time": 0 },
						{
							"time": 0.1667,
							"offset": 8,
							"vertices": [ 3.68904, 1.96394, 3.68904, 1.96394, 3.68904, 1.96394, 0, 0, 0, 0, 0, 0, 0, 0, 0, 0, 3.68904, 1.96394, 3.68904, 1.96394, 3.68904, 1.96394, 3.68904, 1.96394, 3.68904, 1.96394, 3.68904, 1.96394, 3.68904, 1.96394, 3.68904, 1.96394, 3.68904, 1.96394, 3.68904, 1.96394, 3.68904, 1.96394, 3.68904, 1.96394, 3.68904, 1.96394, 0, 0, 3.68904, 1.96394, 3.68904, 1.96394, 0, 0, 0, 0, 3.68904, 1.96394, 3.68904, 1.96394, 3.68904, 1.96394, 3.68904, 1.96394, 3.68904, 1.96394, 3.68904, 1.96394, 3.68904, 1.96394, 3.68904, 1.96394, 3.68904, 1.96394, 3.68904, 1.96394, 3.68904, 1.96394, 0, 0, 3.68904, 1.96394, 0, 0, 3.68904, 1.96394 ]
						},
						{
							"time": 0.3333,
							"offset": 8,
							"vertices": [ 8.13448, -1.62615, 8.13448, -1.62615, 8.13448, -1.62615, 0, 0, 0, 0, 0, 0, 0, 0, 0, 0, 8.13448, -1.62615, 8.13448, -1.62615, 8.13448, -1.62615, 8.13448, -1.62615, 8.13448, -1.62615, 8.13448, -1.62615, 8.13448, -1.62615, 8.13448, -1.62615, 8.13448, -1.62615, 8.13448, -1.62615, 8.13448, -1.62615, 8.13448, -1.62615, 8.13448, -1.62615, 4.44544, -3.5901, 8.13448, -1.62615, 8.13448, -1.62615, 0, 0, 0, 0, 8.13448, -1.62615, 8.13448, -1.62615, 8.13448, -1.62615, 8.13448, -1.62615, 8.13448, -1.62615, 8.13448, -1.62615, 8.13448, -1.62615, 8.13448, -1.62615, 8.13448, -1.62615, 8.13448, -1.62615, 8.13448, -1.62615, 0, 0, 8.13448, -1.62615, 0, 0, 8.13448, -1.62615 ]
						},
						{
							"time": 0.5,
							"offset": 8,
							"vertices": [ 10.98627, -0.15556, 9.80761, -0.11358, 8.94671, -0.0829, 0, 0, 0, 0, 0, 0, 0, 0, 0, 0, 7.93678, 2.95887, 8.14451, 1.85787, 8.40141, 2.39273, 8.82107, 1.86792, 8.51372, 1.21543, 9.41571, 1.03216, 9.90728, 1.25405, 10.39696, 0.25614, 10.60017, 1.54862, 11.30486, 0.82845, 11.62745, 0.37324, 11.78439, 1.47505, 11.44158, 2.30882, 8.0534, 0.78046, 12.11276, 1.38428, 12.34204, 2.66261, 0, 0, 0, 0, 8.89485, 1.11625, 9.35466, 1.9624, 9.66426, 1.32202, 9.77969, 2.3722, 10.23697, 1.97869, 10.09118, 2.9516, 11.06191, 1.47982, 10.68484, 3.0573, 11.40915, 1.74641, 11.02527, 3.12524, 11.59255, 2.84731, 0, 0, 12.12496, 3.10095, 0, 0, 8.2467, 2.71624 ]
						},
						{
							"time": 0.6667,
							"offset": 8,
							"vertices": [ 8.02204, -1.14536, 6.84338, -1.10337, 5.98248, -1.0727, 0, 0, 0, 0, 0, 0, 0, 0, 0, 0, 4.97255, 1.96907, 5.18027, 0.86807, 5.43718, 1.40293, 5.85683, 0.87813, 5.54948, 0.22564, 6.45148, 0.04237, 6.94305, 0.26425, 7.43272, -0.73366, 7.63594, 0.55882, 8.34063, -0.16135, 8.66322, -0.61655, 8.82015, 0.48526, 8.47735, 1.31903, 5.08916, -0.20934, 9.14853, 0.39449, 9.37781, 1.67282, 0, 0, 0, 0, 5.93062, 0.12645, 6.39043, 0.97261, 6.70003, 0.33222, 6.81546, 1.3824, 7.27274, 0.98889, 7.12695, 1.96181, 8.09768, 0.49003, 7.72061, 2.06751, 8.44492, 0.75661, 8.06104, 2.13544, 8.62832, 1.85751, 0, 0, 9.16073, 2.11116, 0, 0, 5.28247, 1.72644 ]
						},
						{
							"time": 0.8333,
							"offset": 8,
							"vertices": [ 7.16106, 0.77616, 7.25349, 0.7762, 7.321, 0.77624, 0, 0, 0, 0, 0, 0, 0, 0, 0, 0, 7.40871, 0.54086, 7.38936, 0.6265, 7.3707, 0.58387, 7.33637, 0.6238, 7.3586, 0.67576, 7.28741, 0.68758, 7.24957, 0.6688, 7.20838, 0.74558, 7.19611, 0.64377, 7.1389, 0.69819, 7.11236, 0.73293, 7.10315, 0.64618, 7.13236, 0.58184, 3.42099, -1.41706, 7.07718, 0.65237, 7.06284, 0.55161, 0, 0, 0, 0, 7.32845, 0.68246, 7.29484, 0.61489, 7.26875, 0.66417, 7.26271, 0.58159, 7.22577, 0.61112, 7.23994, 0.53533, 7.15976, 0.64786, 7.19378, 0.52537, 7.13335, 0.62599, 7.16727, 0.51909, 7.12205, 0.53925, 0, 0, 7.08108, 0.51789, 0, 0, 7.38372, 0.55898 ]
						},
						{ "time": 1 }
					]
				},
				"fire_effect": {
					"fire_effect": [
						{ "time": 0 },
						{
							"time": 0.1667,
							"vertices": [ 20.18547, 0.93371, 16.6762, -1.53585, 16.57945, -5.36872, 21.55619, -7.65726, 0.42155, -5.28514, 0.52675, 2.9397, 0.47585, 5.21159, 11.72426, 2.98934, 16.63375, 5.12801, 16.79572, -10.21294, 16.19083, -6.84918, 16.46267, -3.35657, 18.50968, -6.70597, 20.58675, -6.0026, 23.30264, -7.75692, 7.58, 4.33013, 9.77206, 5.1566, 11.98679, 4.71062, 9.98702, 4.08866, 10.28235, 3.83353, 12.32397, 4.67423, 14.56506, 3.95453, 17.78357, -7.43743, 18.88194, -3.36901, 22.01629, -0.35061, 20.42168, -5.06148, 17.63403, 12.51863, 20.382, 8.39882, 19.07921, 5.02866, 20.2226, 3.84806, 17.9771, 1.67922, 27.32285, -9.56228, 22.19646, -2.8926, 22.84574, 2.8401, 28.70831, -4.42551, 10.64057, 4.40735, 12.42209, 5.20797, 13.86931, 4.39543, 12.52685, 3.93522, 1.72731, 3.53727, 3.28595, 3.25789, 1.68228, 2.45662, 2.21416, -2.86786, 3.92663, -2.24484, 5.78524, -2.79896, 3.5118, -3.43359, 7.32513, 4.36459, 9.6948, 5.12199, 11.75914, 4.70393, 9.63704, 4.30133, 9.98438, 2.35036, 12.9951, 2.57182, 11.14551, 1.86722 ]
						},
						{
							"time": 0.3333,
							"vertices": [ 30.0647, 3.55144, 21.59217, -3.56211, 33.15891, -10.73745, 26.01672, -10.36066, 0.84311, -10.57028, 4.33778, 9.24442, 0.9517, 10.42319, 22.41621, 6.31794, 33.2675, 10.25602, 22.54834, -22.24384, 22.43871, -15.78382, 24.00412, -9.34897, 26.80907, -16.21911, 24.72847, -8.45042, 28.79096, -9.64837, 17.4132, 4.21254, 21.79733, 5.86548, 26.22678, 4.97352, 22.22725, 3.72961, 8.99055, 6.44899, 13.0738, 8.1304, 17.55595, 6.691, 22.58772, -3.11369, 24.16554, 1.41515, 31.61324, 1.40145, 24.75909, -1.23583, 25.65916, 14.20301, 29.47602, 10.79995, 28.20879, 5.0718, 29.52067, 11.04579, 24.22842, 4.98194, 33.89663, -16.14523, 28.34225, -3.31191, 31.6876, 5.30899, 38.21632, -8.42782, 12.39099, 5.78789, 15.95403, 7.38912, 18.84848, 5.76405, 16.16354, 4.84363, 6.73889, 10.43956, 9.85617, 9.8808, 6.64883, 8.27825, 9.00905, -1.8697, 12.43398, -0.62367, 16.1512, -1.73189, 11.60432, -3.00115, 11.85907, 4.21208, 16.5984, 5.72689, 20.72707, 4.89077, 16.48289, 4.08556, 18.93647, 5.03998, 24.95789, 5.48291, 21.25873, 4.07371 ]
						},
						{
							"time": 0.5,
							"vertices": [ 52.64606, 10.61252, 41.99258, -2.74175, 49.73835, -16.10617, 35.51103, -4.97713, 1.26466, -15.85542, 4.95326, 14.39871, 1.42756, 15.63478, 26.4553, 15.50531, 49.90125, 15.38403, 28.82592, -23.51808, 30.28798, -17.28327, 33.35368, -11.47906, 34.38238, -18.76198, 31.80786, -1.55469, 39.98109, -3.89369, 18.93705, 1.26653, 25.51323, 3.74594, 32.15741, 2.408, 26.15811, 0.54213, 15.25618, -2.93027, 21.38104, -0.40816, 28.10428, -2.56727, 33.07816, 8.66611, 38.87331, 10.82004, 45.14871, 9.64764, 38.16345, 7.53915, 48.59974, 20.58811, 56.74587, 14.75153, 56.68724, 7.44017, 49.11965, 22.12356, 43.01952, 10.76231, 38.80956, -15.14335, 35.86456, -2.81397, 40.26436, 4.40405, 43.87735, -8.93108, 16.66215, 11.84488, 22.00672, 14.24673, 26.34838, 11.80912, 22.32098, 10.42849, 8.55489, 16.19144, 13.2308, 15.3533, 8.4198, 12.94946, 14.14275, 2.16244, 19.28014, 4.0315, 24.85598, 2.36915, 18.03565, 0.46527, 12.92189, 7.38038, 20.03089, 9.65259, 26.22389, 8.39841, 19.85762, 7.1906, 21.23569, 13.58836, 30.26782, 14.25276, 24.71907, 12.13897 ]
						},
						{
							"time": 0.6667,
							"vertices": [ 59.75542, 13.75187, 55.64569, -1.33364, 66.31779, -21.47489, 39.39254, -9.57095, 1.68621, -21.14057, 6.79033, 3.03388, 1.90341, 20.84637, 39.56693, 14.01605, 66.53499, 20.51204, 34.64323, -17.83552, 38.93792, -11.41717, 44.86029, -6.16501, 42.93292, -14.8229, 33.76792, -6.52472, 44.54763, -6.83814, 23.20348, 8.76867, 31.97172, 12.07454, 40.83064, 10.29063, 32.83156, 7.8028, 29.07548, 8.48835, 37.24196, 11.85116, 46.20628, 8.97235, 27.6754, 1.20483, 35.40227, 4.07674, 43.76947, 2.51354, 34.45579, -0.29779, 43.74039, 13.28732, 52.44199, 13.36465, 56.14427, 8.20681, 52.92908, 22.14388, 51.68997, 10.62314, 44.41503, -11.77851, 46.75543, 1.3269, 54.14511, 6.56415, 51.90137, -7.9254, 13.97968, 5.16019, 21.10578, 8.36266, 26.89466, 5.11251, 21.52479, 3.27168, 11.59254, 5.42418, 17.8271, 4.30666, 11.41242, 1.10155, 11.9381, 4.60388, 18.78796, 7.09595, 26.22241, 4.87949, 17.12864, 2.34098, 17.22918, 9.84051, 26.70785, 12.87012, 34.96519, 11.19788, 26.47683, 9.58747, 32.60744, 11.46011, 44.65029, 12.34598, 37.25196, 9.52759 ]
						},
						{
							"time": 0.8333,
							"vertices": [ 65.58823, 13.87815, 61.29623, -2.54737, 82.89724, -26.84361, 55.18437, -26.51655, 2.10777, -26.4257, 15.28903, -12.55075, 3.26697, 23.01797, 52.17265, 11.95215, 83.16873, 25.64005, 39.31194, -21.40994, 44.08505, -13.75154, 50.80321, -7.3936, 48.87962, -17.57805, 48.15359, -22.70876, 61.62824, -23.10054, 47.90118, 2.71905, 58.86149, 6.85139, 69.93513, 4.6215, 59.93628, 1.51171, 30.68435, 5.85062, 40.89246, 10.05414, 52.09785, 6.45562, 50.75525, -0.05202, 60.41383, 3.53787, 70.87283, 1.58387, 59.23074, -1.93029, 55.70045, 23.87203, 66.57745, 23.96869, 71.20529, 17.52138, 58.15437, 22.76485, 56.99687, 10.40889, 49.69695, -13.67275, 52.13277, 0.22148, 59.92427, 5.86724, 57.61645, -9.56488, 12.80374, 3.78204, 21.71137, 7.78513, 28.94748, 3.72244, 22.23514, 1.4214, 20.40408, -6.52289, 28.19728, -7.91979, 20.17894, -11.92618, 21.59079, 8.15275, 30.15312, 11.26784, 39.44617, 8.49727, 28.07897, 5.32413, 28.40072, 6.74832, 40.24905, 10.53535, 50.57073, 8.44505, 39.96028, 6.43202, 43.4733, 8.75723, 58.52686, 9.86457, 49.27894, 6.34157 ]
						},
						{
							"time": 1,
							"vertices": [ 70.22786, 10.30568, 66.06273, -4.22714, 99.47669, -32.21234, 44.27949, -20.50186, 2.52932, -31.71085, 17.13642, -18.19727, 2.85511, 31.26955, 59.5779, 17.707, 99.80248, 30.76807, 38.14251, -24.92853, 43.48689, -17.64964, 50.67324, -11.81612, 47.98017, -21.83194, 35.84256, -15.93252, 52.01213, -16.40265, 52.41794, -4.86644, 65.5703, 0.09238, 78.85867, -2.58349, 66.86005, -6.31524, 36.36813, 3.72758, 48.61784, 8.7718, 62.06432, 4.45359, 45.51926, 4.81257, 57.10957, 9.12044, 69.66037, 6.77564, 55.68985, 2.55865, 43.68815, 21.91249, 56.74055, 22.02849, 62.29397, 14.29172, 63.88591, 18.3815, 62.52224, 7.4677, 51.6293, -18.81272, 54.06294, -5.55073, 61.58261, -0.16847, 59.23014, -14.9464, 15.36449, 4.53845, 26.05364, 9.34216, 34.73698, 4.46693, 26.68217, 1.70568, 24.33973, -14.61182, 33.69157, -16.28811, 24.06956, -21.09577, 24.36652, 9.87976, 34.64132, 13.61787, 45.79298, 10.29319, 32.15234, 6.48541, 26.16274, 6.58407, 40.38074, 11.1285, 52.76675, 8.62014, 40.03422, 6.20451, 49.13867, 13.8731, 67.20294, 15.2019, 56.10544, 10.97431 ]
						}
					]
				},
				"fire_effect2": {
					"fire_effect": [
						{
							"time": 0,
							"vertices": [ 1.4448, 9.53559, 1.3739, -4.17321, 4.16541, -32.99667, -4.75749, -3.55609, -101.66119, -32.44925, -64.53532, -11.82516, -101.30558, 36.2994, -22.21686, 37.33279, 4.52102, 35.752, -14.77456, -10.21039, -8.0317, -4.14206, 0.22784, 0.12854, -4.46602, -9.17318, -13.96715, 1.43173, 3.68337, 0.91854, -49.311, -15.36091, -34.95404, -9.94793, -20.44863, -12.86888, -33.54616, -16.94241, -46.66646, -2.91541, -33.29486, 2.59081, -18.61683, -2.12291, -25.98278, -0.93591, -13.33094, 3.76651, 0.36937, 1.20695, -14.88069, -3.39627, -17.7695, 6.65887, -3.52164, 6.78549, 2.54041, -1.6599, -6.07282, 15.02986, -4.58591, 5.1677, -12.14894, -13.65716, -6.81858, -1.84882, 1.43732, 1.43613, -4.16714, -11.8049, -50.63039, 7.29942, -38.96226, 12.54309, -29.48368, 7.22135, -38.27617, 4.2072, -56.67225, -7.91133, -46.46393, -9.74114, -56.96719, -14.98913, -57.8106, 23.54465, -46.59479, 27.62513, -34.42178, 23.99594, -49.31172, 19.83943, -51.76262, 19.59457, -36.24247, 24.55522, -22.72208, 21.81712, -36.62075, 19.18024, -33.61217, 33.14772, -13.89346, 34.59826, -26.00734, 29.98341 ]
						},
						{
							"time": 1,
							"vertices": [ 7.69904, -0.27631, 7.69904, -0.27631, 7.69904, -0.27631, 7.69904, -0.27631, 7.69904, -0.27631, 7.69904, -0.27631, 7.69904, -0.27631, 7.69904, -0.27631, 7.69904, -0.27631, 7.69904, -0.27631, 7.69904, -0.27631, 7.69904, -0.27631, 7.69904, -0.27631, 7.69904, -0.27631, 7.69904, -0.27631, 7.69904, -0.27631, 7.69904, -0.27631, 7.69904, -0.27631, 7.69904, -0.27631, 7.69904, -0.27631, 7.69904, -0.27631, 7.69904, -0.27631, 7.69904, -0.27631, 7.69904, -0.27631, 7.69904, -0.27631, 7.69904, -0.27631, 7.69904, -0.27631, 7.69904, -0.27631, 7.69904, -0.27631, 7.69904, -0.27631, 7.69904, -0.27631, 7.69904, -0.27631, 7.69904, -0.27631, 7.69904, -0.27631, 7.69904, -0.27631, 7.69904, -0.27631, 7.69904, -0.27631, 7.69904, -0.27631, 7.69904, -0.27631, 7.69904, -0.27631, 7.69904, -0.27631, 7.69904, -0.27631, 7.69904, -0.27631, 7.69904, -0.27631, 7.69904, -0.27631, 7.69904, -0.27631, 7.69904, -0.27631, 7.69904, -0.27631, 7.69904, -0.27631, 7.69904, -0.27631, 7.69904, -0.27631, 7.69904, -0.27631, 7.69904, -0.27631 ]
						}
					]
				}
			}
		}
	}
}
}