{
"skeleton": { "hash": "1IMU0o0ip0GKYkAvsDlskjDxdWY", "spine": "3.6.53", "width": 739.24, "height": 1255.25, "images": "./images/" },
"bones": [
	{ "name": "root" },
	{ "name": "Wizard_body", "parent": "root", "length": 505.24, "rotation": 84.53, "x": -1.53, "y": 5.75 },
	{ "name": "Wizard_arm_left", "parent": "Wizard_body", "length": 335.37, "rotation": -167.85, "x": 506.76, "y": 126.33 },
	{ "name": "Wizard_arm_right", "parent": "Wizard_body", "length": 243.87, "rotation": -132.73, "x": 538.65, "y": -83.17 }
],
"slots": [
	{ "name": "Wizard_arm_right", "bone": "Wizard_arm_right" },
	{ "name": "Wizard_body", "bone": "Wizard_body", "attachment": "green_body" },
	{ "name": "Wizard_arm_left", "bone": "Wizard_arm_left", "attachment": "green_arm_front" }
],
"skins": {
	"default": {
		"Wizard_arm_left": {
			"green_arm_front": {
				"type": "mesh",
				"uvs": [ 1, 0.73142, 1, 1, 0.55514, 1, 0, 1, 0, 0.52478, 0, 0, 1, 0, 0.45854, 0.5032, 0.54534, 0.56205, 0.95677, 0.80718, 0.81291, 0.92863, 0.36474, 0.96516, 0.24391, 0.73711, 0.09602, 0.63274, 0.22623, 0.51483 ],
				"triangles": [ 7, 5, 6, 14, 5, 7, 4, 5, 14, 8, 7, 6, 13, 4, 14, 8, 6, 0, 10, 12, 14, 13, 14, 12, 9, 8, 0, 10, 8, 9, 14, 8, 10, 7, 8, 14, 2, 11, 12, 3, 4, 13, 3, 13, 12, 3, 12, 11, 10, 2, 12, 3, 11, 2, 9, 0, 1, 10, 9, 1, 2, 10, 1 ],
				"vertices": [ 233.89, 124.62, 351.55, 154.48, 377.27, 53.15, 409.36, -73.3, 201.16, -126.13, -28.75, -184.48, -86.56, 43.3, 165.2, -24.09, 185.96, 2.23, 269.58, 123.2, 331.1, 103.93, 373.01, 5.91, 280.08, -46.97, 242.91, -92.26, 183.72, -75.71 ],
				"hull": 7,
				"edges": [ 10, 12, 2, 0, 0, 12, 2, 4, 4, 6, 6, 8, 8, 10, 28, 20 ],
				"width": 235,
				"height": 452
			}
		},
		"Wizard_arm_right": {
			"green_arm_back": {
				"type": "mesh",
				"uvs": [ 1, 0.20456, 1, 0.5363, 1, 1, 0.82908, 1, 0, 1, 0, 0, 1, 0, 0.4826, 0.23461, 0.68877, 0.2021, 0.93211, 0.13853, 0.8855, 0.95086, 0.62506, 0.80964, 0.39049, 0.64981, 0.41429, 0.38686 ],
				"triangles": [ 6, 8, 5, 9, 8, 6, 9, 6, 0, 7, 5, 8, 13, 5, 7, 8, 9, 0, 1, 8, 0, 13, 7, 8, 1, 13, 8, 12, 5, 13, 11, 12, 13, 1, 11, 13, 10, 11, 1, 4, 5, 12, 3, 11, 10, 4, 12, 11, 3, 4, 11, 10, 1, 2, 3, 10, 2 ],
				"vertices": [ 226.48, 101.51, 255.29, 17.06, 295.57, -101, 248.18, -117.17, 18.27, -195.61, -68.59, 58.98, 208.71, 153.59, 85.61, 44.91, 139.96, 72.69, 201.92, 111.9, 259.55, -99.32, 175.07, -88.01, 96.14, -69.51, 79.89, -0.31 ],
				"hull": 7,
				"edges": [ 8, 10, 10, 12, 0, 12, 0, 2, 2, 4, 4, 6, 6, 8, 26, 2 ],
				"width": 293,
				"height": 269
			}
		},
		"Wizard_body": {
			"green_body": {
				"type": "mesh",
				"uvs": [ 1, 0.37187, 1, 1, 0.49559, 1, 0, 1, 0, 0.38315, 0, 0, 1, 0, 0.18172, 0.88463, 0.23946, 0.92526, 0.36598, 0.98451, 0.57507, 0.9913, 0.64539, 0.87338, 0.69419, 0.92042, 0.74299, 0.98754, 0.79317, 0.97246, 0.8078, 0.95923, 0.77042, 0.87846, 0.75025, 0.79315, 0.72348, 0.71386, 0.72026, 0.62149, 0.55209, 0.71758, 0.49355, 0.71867, 0.31095, 0.70545, 0.28953, 0.76403, 0.24409, 0.82321, 0.31362, 0.85337, 0.40293, 0.8751, 0.73601, 0.87439, 0.01197, 0.24494, 0.04286, 0.4759, 0.10478, 0.3934, 0.15252, 0.3783, 0.13254, 0.29564, 0.17335, 0.20347, 0.13163, 0.08561, 0.05436, 0.17105, 0.4848, 0.19049, 0.57308, 0.19376, 0.63211, 0.23146, 0.69168, 0.31432, 0.72931, 0.2383, 0.77998, 0.19369, 0.84541, 0.18919, 0.69163, 0.22342, 0.65733, 0.13562, 0.48425, 0.36129, 0.57244, 0.3055, 0.63545, 0.31372, 0.68683, 0.37044, 0.72795, 0.31067, 0.77749, 0.30079, 0.82425, 0.34529, 0.08772, 0.40293, 0.09337, 0.4086, 0.1782, 0.48067, 0.19099, 0.3635, 0.27831, 0.36444, 0.36192, 0.36317, 0.48574, 0.34519, 0.43948, 0.41709, 0.47867, 0.48866, 0.53156, 0.52296, 0.29257, 0.53102, 0.49764, 0.54516, 0.87505, 0.33596, 0.94627, 0.44591, 0.88507, 0.48392, 0.80548, 0.52139, 0.65604, 0.57076, 0.65767, 0.52081, 0.79933, 0.49155, 0.86333, 0.4587, 0.89452, 0.43063 ],
				"triangles": [ 44, 34, 5, 6, 44, 5, 35, 5, 34, 42, 44, 6, 36, 34, 44, 41, 44, 42, 37, 36, 44, 33, 34, 36, 35, 34, 33, 43, 44, 41, 38, 37, 44, 43, 38, 44, 40, 43, 41, 28, 5, 35, 32, 35, 33, 28, 35, 32, 50, 40, 41, 46, 36, 37, 46, 37, 38, 40, 39, 43, 49, 40, 50, 39, 47, 38, 43, 39, 38, 46, 38, 47, 40, 49, 39, 0, 64, 42, 58, 36, 46, 57, 33, 36, 33, 55, 32, 42, 50, 41, 64, 50, 42, 64, 51, 50, 57, 36, 58, 45, 58, 46, 58, 59, 57, 33, 56, 55, 57, 56, 33, 48, 47, 39, 48, 39, 49, 0, 42, 6, 31, 32, 55, 4, 5, 28, 4, 28, 32, 30, 4, 32, 31, 30, 32, 52, 4, 30, 53, 52, 30, 45, 59, 58, 72, 64, 0, 65, 72, 0, 72, 71, 51, 72, 51, 64, 29, 4, 52, 29, 52, 53, 54, 31, 55, 30, 31, 54, 53, 30, 54, 29, 53, 54, 54, 55, 56, 66, 71, 72, 66, 72, 65, 60, 59, 45, 51, 49, 50, 70, 51, 71, 51, 48, 49, 70, 48, 51, 47, 48, 46, 69, 48, 70, 67, 70, 71, 67, 71, 66, 69, 70, 67, 48, 61, 45, 60, 45, 61, 62, 56, 57, 62, 57, 59, 62, 59, 60, 54, 56, 62, 63, 60, 61, 62, 60, 63, 61, 48, 69, 68, 69, 67, 19, 68, 67, 22, 62, 63, 18, 19, 67, 61, 69, 20, 45, 46, 48, 68, 20, 69, 20, 68, 19, 20, 19, 18, 63, 61, 20, 21, 22, 63, 20, 21, 63, 22, 23, 54, 22, 54, 62, 17, 18, 67, 24, 54, 23, 22, 26, 23, 26, 25, 23, 24, 23, 25, 11, 20, 18, 11, 18, 17, 27, 11, 17, 22, 21, 26, 66, 16, 17, 27, 17, 16, 24, 29, 54, 12, 11, 27, 8, 7, 24, 8, 24, 25, 67, 66, 17, 1, 15, 16, 14, 16, 15, 27, 16, 14, 9, 25, 26, 8, 25, 9, 13, 27, 14, 12, 27, 13, 20, 11, 21, 10, 11, 12, 10, 12, 13, 3, 4, 29, 7, 3, 29, 24, 7, 29, 21, 11, 26, 10, 2, 11, 2, 26, 11, 9, 26, 2, 3, 7, 8, 3, 8, 9, 3, 9, 2, 65, 0, 1, 66, 65, 1, 1, 16, 66, 14, 15, 1, 13, 14, 1, 2, 10, 13, 1, 2, 13 ],
				"vertices": [ 812.15, -275.62, 37.11, -364.61, -4.09, -5.81, -44.56, 346.71, 716.56, 434.11, 1189.33, 488.39, 1271, -222.94, 112.64, 233.8, 67.21, 186.97, 4.44, 88.58, 13.14, -61.12, 164.38, -94.43, 110.33, -135.81, 31.49, -180.03, 54.2, -213.59, 71.72, -222.12, 168.33, -184.09, 271.95, -157.66, 367.59, -127.38, 481.3, -112, 349.01, -5.99, 342.87, 35.5, 344.28, 167.26, 270.25, 174.19, 193.51, 198.13, 161.97, 144.4, 142.46, 77.8, 170.54, -159.03, 888.08, 445.17, 605.62, 390.48, 712.47, 358.12, 735, 326.3, 835.36, 352.23, 952.42, 336.26, 1094.44, 382.63, 982.71, 425.49, 993.88, 116.55, 997.05, 53.29, 955.36, 5.96, 857.98, -48.15, 954.85, -64.15, 1014.04, -93.87, 1024.94, -139.78, 970.14, -35.24, 1075.68, 1.6, 783.08, 92.75, 859.12, 37.91, 854.14, -8.07, 788.35, -52.65, 865.45, -73.44, 881.69, -107.27, 830.6, -146.84, 699.32, 368.91, 692.78, 364.09, 610.79, 293.53, 756.41, 301.03, 762.38, 238.79, 770.77, 179.49, 803.07, 93.97, 710.58, 116.68, 625.47, 78.66, 587.46, 36.18, 558, 205.04, 557.3, 57.17, 846.26, -181.66, 716.41, -247.89, 664.51, -209.74, 611.78, -158.44, 538.65, -59.13, 600.42, -53.22, 648.1, -149.83, 693.85, -190.71, 731.04, -208.92 ],
				"hull": 7,
				"edges": [ 10, 12, 14, 16, 16, 18, 2, 4, 4, 6, 18, 4, 4, 20, 20, 22, 22, 24, 24, 26, 26, 20, 26, 28, 28, 30, 30, 32, 32, 34, 34, 36, 36, 38, 36, 40, 40, 42, 42, 44, 44, 46, 46, 48, 48, 14, 16, 50, 18, 52, 28, 54, 6, 8, 8, 10, 56, 8, 8, 58, 60, 62, 62, 64, 64, 66, 66, 68, 68, 70, 70, 56, 72, 74, 74, 76, 76, 78, 78, 80, 80, 82, 82, 84, 78, 86, 86, 88, 90, 92, 92, 94, 94, 96, 96, 98, 98, 100, 100, 102, 104, 60, 58, 106, 106, 60, 104, 106, 106, 108, 62, 110, 110, 112, 112, 114, 114, 116, 116, 118, 118, 120, 120, 122, 108, 124, 124, 126, 126, 122, 2, 0, 0, 12, 128, 0, 0, 130, 130, 132, 132, 134, 134, 136, 136, 138, 138, 140, 140, 142, 142, 144, 144, 128 ],
				"width": 716,
				"height": 1242
			}
		}
	}
},
"animations": {
	"a_idle_C_green": {
		"bones": {
			"Wizard_body": {
				"translate": [
					{ "time": 0, "x": 0, "y": 0 },
					{ "time": 0.5, "x": 4.48, "y": 46.74 },
					{ "time": 1, "x": 0, "y": 0 }
				]
			},
			"Wizard_arm_right": {
				"translate": [
					{ "time": 0, "x": 0, "y": 0, "curve": "stepped" },
					{ "time": 1, "x": 0, "y": 0 }
				]
			},
			"Wizard_arm_left": {
				"translate": [
					{ "time": 0, "x": 0, "y": 0, "curve": "stepped" },
					{ "time": 1, "x": 0, "y": 0 }
				]
			}
		},
		"deform": {
			"default": {
				"Wizard_arm_left": {
					"green_arm_front": [
						{ "time": 0 },
						{
							"time": 0.5,
							"vertices": [ -17.54156, -4.83207, 0, 0, -13.63861, 3.60263, 0, 0, -2.9458, -6.30787, 0, 0, 0, 0, -8.8028, -8.56496, -10.36365, -7.40502, -17.5191, -2.76003, -16.50555, 0.83992, -10.89197, 3.43532, -7.66931, -1.86441, -4.98047, -3.94386, -5.84039, -7.40376 ]
						},
						{ "time": 1 }
					]
				},
				"Wizard_arm_right": {
					"green_arm_back": [
						{ "time": 0 },
						{
							"time": 0.5,
							"offset": 2,
							"vertices": [ -8.00238, 21.47495, 0, 0, 11.33792, 21.84363, 0, 0, 0, 0, 0, 0, -10.24326, -3.17004, -14.79422, 4.34335, -21.0636, 12.83063, 8.65814, 23.29147, 7.90952, 11.04709, 6.07208, -0.4743, -3.69247, -3.52246 ]
						},
						{ "time": 1 }
					]
				},
				"Wizard_body": {
					"green_body": [
						{
							"time": 0,
							"offset": 8,
							"vertices": [ -1.08435, 8.95621, 0, 0, 0, 0, 0, 0, 0, 0, 0, 0, 0, 0, 0, 0, 0, 0, 0, 0, 0, 0, 0, 0, 0, 0, 0, 0, 0, 0, 0, 0, 0, 0, 0, 0, 0, 0, 0, 0, 0, 0, 0, 0, 0, 0, 0, 0, -1.08435, 8.95621, -0.16931, -0.02013, -1.08435, 8.95621, -1.08435, 8.95621, -1.08435, 8.95621, 0, 0, 0, 0, -1.08435, 8.95621, 0, 0, 0, 0, 0, 0, 0, 0, 0, 0, 0, 0, 0, 0, 0, 0, 0, 0, 0, 0, 0, 0, 0, 0, 0, 0, 0, 0, 0, 0, 0, 0, -1.08435, 8.95621, -1.08435, 8.95621 ]
						},
						{
							"time": 0.1667,
							"vertices": [ -2.43945, -2.37369, 0, 0, 0, 0, 0, 0, 0, 0, 0, 0, 0, 0, -2.22449, -5.88007, 0.00146, 3.0E-5, 0.00146, 3.0E-5, 0, 0, 0, 0, 0, 0, -1.01282, 8.37341, -1.01282, 8.37341, -1.01282, 8.37341, 0, 0, 0, 0, 0, 0, 0, 0, 0, 0, 0, 0, 0, 0, 0, 0, 0.00146, 3.0E-5, 0.00146, 3.0E-5, 0, 0, 0, 0, 0, 0, 0, 0, 0, 0, 0, 0, 0, 0, 0, 0, 0, 0, 0, 0, 0, 0, 0, 0, 2.64868, -6.659, -2.05725, 2.69081, -3.93127, -6.34216, 0, 0, 0, 0, -1.27576, -7.8884, 0, 0, 0, 0, 6.0177, 2.25278, 1.72034, 2.89734, -2.21265, 9.24493, -4.45959, 2.08585, 0, 0, 0, 0, 0, 0, 0, 0, 0, 0, 0, 0, 0.31897, -2.6322, 0.31897, -2.6322, 0.31897, -2.6322, 0.31897, -2.6322, 0.31897, -2.6322, 0, 0, 0, 0, 0, 0, 0.77649, -3.58148, -1.45007, 0.90582, -0.11938, 2.67477, 1.66382, 4.46736, 0, 0, 0, 0, 1.94543, 3.21597, 0.52368, 1.65918, -0.11646, 0.38843 ]
						},
						{
							"time": 0.3333,
							"vertices": [ -5.07764, -4.76575, 0, 0, 0, 0, 0, 0, 12.5625, 3.87236, 0, 0, 0, 0, -0.76592, -13.07743, 1.01484, -8.37336, 1.01484, -8.37336, 0, 0, 0, 0, 0, 0, -0.81025, 6.69873, -1.1479, 9.48993, -1.1479, 9.48993, -0.33765, 2.7912, 0, 0, 0, 0, 0, 0, 0, 0, 0, 0, 0, 0, 0, 0, 1.01484, -8.37336, 1.01484, -8.37336, 0, 0, -0.33765, 2.7912, 0, 0, -0.02466, 12.95441, 0, 0, 0, 0, 0, 0, 0, 0, 0, 0, 0, 0, 0, 0, 0, 0, 0, 0, 0, 0, 0, 0, 0, 0, 0, 0, 0, 0, 0, 0, 0, 0, 0, 0, 0, 0, 0, 0, 0, 0, 0, 0, 0, 0, -0.39221, 3.84717, -4.23914, 3.45482, 0, 0, 0, 0, 0.74426, -6.14203, 0.74426, -6.14203, 0.74426, -6.14203, 0.74426, -6.14203, 0.74426, -6.14203, 0, 0, 0, 0, 0, 0, 1.45667, -7.3546, -2.93311, 1.90628, -0.146, 5.47577, 3.56726, 9.077, 0, 0, 0, 0, 4.09778, 6.50691, 1.13184, 3.37469, -0.22412, 0.79883 ]
						},
						{
							"time": 0.5,
							"offset": 4,
							"vertices": [ 0.34082, -2.81735, 0, 0, 0, 0, 0, 0, 0, 0, -0.23362, -12.62543, 1.10195, -9.09737, 1.10195, -9.09737, 0, 0, 0, 0, -0.50696, 4.18671, -1.11465, 9.21075, -1.36788, 11.30415, -1.36788, 11.30415, -0.25323, 2.0934, 0, 0, 0, 0, 0, 0, 0, 0, 0, 0, 0, 0, 0, 0, 1.10195, -9.09737, 1.10195, -9.09737, 0.34082, -2.81735, -0.76019, 6.28011, 0, 0, 0, 0, 0, 0, 0, 0, 0, 0, 0, 0, 0, 0, 0, 0, 0, 0, 0, 0, 0, 0, 0, 0, 0, 0, 0, 0, 0, 0, 0, 0, 0, 0, 0, 0, 0, 0, 0, 0, 0, 0, 0, 0, 0, 0, 0, 0, 0, 0, 0, 0, 0, 0, 0, 0, 1.59534, -13.1946, 1.59534, -13.1946, 1.59534, -13.1946, 1.59534, -13.1946, 1.59534, -13.1946 ]
						},
						{
							"time": 0.6667,
							"vertices": [ 0.8999, 0.91673, 0, 0, 0.22721, -1.87823, 0, 0, 0, 0, 0, 0, 0, 0, -1.44871, 2.27116, -0.55833, 4.6232, -0.55833, 4.6232, 0, 0, 0, 0, -0.33797, 2.79114, -0.7431, 6.1405, 1.03119, -8.52138, 1.03119, -8.52138, 1.77429, -14.66188, 0, 0, 0, 0, 0, 0, 0, 0, 0, 0, 0, 0, 0, 0, -0.55833, 4.6232, -0.55833, 4.6232, 0.22721, -1.87823, -0.5068, 4.18674, 0, 0, 0, 0, 0, 0, 0, 0, 0, 0, 0, 0, 0, 0, 0, 0, 0, 0, 0, 0, 0, 0, 0, 0, 0, 0, 0, 0, 0, 0, 0, 0, 0, 0, 0, 0, 0, 0, 0, 0, 0, 0, 0, 0, 0, 0, 0, 0, 0, 0, 0, 0, 0, 0, 0, 0, -0.10559, 0.87755, -0.10559, 0.87755, -0.10559, 0.87755, -0.10559, 0.87755, -0.10559, 0.87755, 0, 0, 0, 0, 0, 0, -0.32349, 1.34337, 0.55615, -0.32858, 0.07043, -1.00746, -0.58606, -1.69913, 0, 0, 0, 0, -0.70337, -1.22989, -0.1814, -0.63022, 0.04895, -0.1454 ]
						},
						{
							"time": 0.8333,
							"vertices": [ 4.76843, 5.1545, 0, 0, 0.11361, -0.93912, 0, 0, -0.54218, 4.4781, 0, 0, 0, 0, -0.72436, 1.13558, -0.27917, 2.3116, -0.27917, 2.3116, 0, 0, 0, 0, -0.16899, 1.39557, -0.37155, 3.07025, 0.5156, -4.26069, 0.5156, -4.26069, 0.88715, -7.33094, 0, 0, 0, 0, 0, 0, 0, 0, 0, 0, 0, 0, 0, 0, -0.27917, 2.3116, -0.27917, 2.3116, 0.11361, -0.93912, -0.2534, 2.09337, -0.54218, 4.4781, -0.08466, -0.01006, -0.54218, 4.4781, -0.54218, 4.4781, -0.54218, 4.4781, 0, 0, 0, 0, -0.54218, 4.4781, 0, 0, 0, 0, 2.13049, -6.40155, -2.17151, 2.05328, 0, 0, 0, 0, 0, 0, -1.42102, -7.53145, 0, 0, 0, 0, 5.14844, 1.68852, 1.25098, 2.25554, -2.33862, 7.99266, -4.34692, 1.49542, 0, 0, 0, 0, -0.54218, 4.4781, -0.54218, 4.4781, 0, 0, 0, 0, -0.63635, 5.26468, -0.63635, 5.26468, -0.63635, 5.26468, -0.63635, 5.26468, -0.63635, 5.26468, 0, 0, 0, 0, 0, 0, -1.98767, 7.29346, 3.0863, -1.7086, 0.53699, -5.49695, -2.94165, -9.38304, 0, 0, 0, 0, -3.65784, -6.83591, -0.89758, -3.47459, 0.28271, -0.78748 ]
						},
						{
							"time": 1,
							"offset": 8,
							"vertices": [ -1.08435, 8.95621, 0, 0, 0, 0, 0, 0, 0, 0, 0, 0, 0, 0, 0, 0, 0, 0, 0, 0, 0, 0, 0, 0, 0, 0, 0, 0, 0, 0, 0, 0, 0, 0, 0, 0, 0, 0, 0, 0, 0, 0, 0, 0, 0, 0, 0, 0, -1.08435, 8.95621, -0.16931, -0.02013, -1.08435, 8.95621, -1.08435, 8.95621, -1.08435, 8.95621, 0, 0, 0, 0, -1.08435, 8.95621, 0, 0, 0, 0, 0, 0, 0, 0, 0, 0, 0, 0, 0, 0, 0, 0, 0, 0, 0, 0, 0, 0, 0, 0, 0, 0, 0, 0, 0, 0, 0, 0, -1.08435, 8.95621, -1.08435, 8.95621 ]
						}
					]
				}
			}
		}
	}
}
}