%YAML 1.1
%TAG !u! tag:unity3d.com,2011:
--- !u!114 &11400000
MonoBehaviour:
  m_ObjectHideFlags: 0
  m_PrefabParentObject: {fileID: 0}
  m_PrefabInternal: {fileID: 0}
  m_GameObject: {fileID: 0}
  m_Enabled: 1
  m_EditorHideFlags: 0
  m_Script: {fileID: 11500000, guid: a6b194f808b1af6499c93410e504af42, type: 3}
  m_Name: a_idle_C_red_Atlas
  m_EditorClassIdentifier: 
  atlasFile: {fileID: 4900000, guid: 7c6b22e3071de50449254cdda2476101, type: 3}
  materials:
  - {fileID: 2100000, guid: 067455480bf7e694783f8d78e890a26e, type: 2}
