%YAML 1.1
%TAG !u! tag:unity3d.com,2011:
--- !u!1045 &1
EditorBuildSettings:
  m_ObjectHideFlags: 0
  serializedVersion: 2
  m_Scenes:
  - enabled: 1
    path: Assets/Scenes/StartMenu.unity
    guid: f845c870bb928344cbebf45e354033ea
  - enabled: 0
    path: Assets/Scenes/Main.unity
    guid: d79ba45343b25e644bca833d93bc018f
  - enabled: 1
    path: Assets/Scenes/Arenas/Arena 1.unity
    guid: 624fd04528172044f8d5d1412d1056ef
  - enabled: 1
    path: Assets/Scenes/Arenas/Arena 2.unity
    guid: 286b022cfa32ae6489ad7fd1349da6e3
  - enabled: 1
    path: Assets/Scenes/Arenas/Arena 3.unity
    guid: a55d1909abd52bb44988776691b0113c
  - enabled: 1
    path: Assets/Scenes/Arenas/Arena 4.unity
    guid: 85df29eaed0374a408bf0625a05c09b6
  - enabled: 1
    path: Assets/Scenes/Arenas/Arena 5.unity
    guid: 20c0f612aa289d943bf2ca98be3d3ba9
  - enabled: 1
    path: Assets/Scenes/Arenas/Arena 6.unity
    guid: 39eed4f5fddada14e942f6221be4de1a
  - enabled: 1
    path: Assets/Scenes/Arenas/Arena 7.unity
    guid: 01c5a6d8b0137884fbb5db33d17538ec
  - enabled: 1
    path: Assets/Scenes/Arenas/Arena 8.unity
    guid: 1a305ae65809eab4482188132b9200a2
  - enabled: 1
    path: Assets/Scenes/Arenas/Arena 10.unity
    guid: df8faf1689ccd2442af0a901b967ad3f
