{
"skeleton": { "hash": "2ZLcu2nCI2tZl+NhokicajFD+x4", "spine": "3.6.53", "width": 730, "height": 1241, "images": "./images/" },
"bones": [
	{ "name": "root" },
	{ "name": "bone", "parent": "root", "length": 572.99, "rotation": 87.64, "x": 2.68, "y": 1.38 },
	{ "name": "bone2", "parent": "bone", "length": 504.56, "rotation": -20.74, "x": 565.83, "y": 2.06 },
	{ "name": "bone3", "parent": "bone", "length": 216.37, "rotation": -75.22, "x": 528.32, "y": 111.35 },
	{ "name": "bone4", "parent": "bone", "length": 240.82, "rotation": -34.65, "x": 521.76, "y": -72.85 }
],
"slots": [
	{ "name": "Head", "bone": "bone2", "attachment": "blue_sad_head" },
	{ "name": "Wizard_arm_right", "bone": "bone4", "attachment": "blue_arm_back" },
	{ "name": "Body", "bone": "bone", "attachment": "blue_sad_body" },
	{ "name": "Wizard_arm_left", "bone": "bone3", "attachment": "blue_arm_front" }
],
"skins": {
	"default": {
		"Body": {
			"blue_sad_body": { "x": 521.63, "y": 84.38, "rotation": -87.64, "width": 519, "height": 1058 }
		},
		"Head": {
			"blue_sad_head": { "x": 303.49, "y": 103.39, "rotation": -66.91, "width": 725, "height": 703 }
		},
		"Wizard_arm_left": {
			"blue_arm_front": {
				"type": "mesh",
				"uvs": [ 1, 0.73774, 1, 1, 0.55802, 1, 0, 1, 0, 0.52785, 0, 0, 0.54336, 0, 0.63551, 0, 1, 0, 0.09707, 0.64376, 0.24168, 0.73461, 0.36822, 0.96956, 0.81109, 0.92727, 0.95545, 0.70432, 0.95738, 0.80669, 0.53168, 0.55476, 0.4603, 0.5028, 0.8237, 0.2808, 0.8886, 0.23679, 0.93273, 0.17674, 0.91326, 0.12883, 0.83668, 0.0654, 0.43175, 0.03908, 0.35517, 0.09104, 0.33181, 0.12748, 0.337, 0.1484, 0.19813, 0.25299, 0.54781, 0.85288, 0.7006, 0.76352, 0.23509, 0.51529 ],
				"triangles": [ 22, 5, 6, 21, 7, 8, 23, 5, 22, 24, 5, 23, 20, 21, 8, 25, 24, 23, 19, 20, 8, 18, 21, 20, 18, 20, 19, 26, 5, 24, 26, 24, 25, 17, 7, 21, 17, 21, 18, 29, 25, 6, 25, 23, 22, 16, 29, 7, 29, 26, 25, 29, 6, 7, 25, 22, 6, 7, 17, 16, 4, 5, 26, 4, 26, 29, 15, 16, 17, 9, 4, 29, 19, 0, 18, 8, 0, 19, 13, 18, 0, 17, 18, 13, 15, 17, 13, 29, 27, 10, 9, 29, 10, 28, 15, 13, 28, 13, 0, 29, 15, 28, 16, 15, 29, 14, 28, 0, 28, 27, 29, 12, 28, 14, 11, 10, 27, 3, 4, 9, 3, 9, 10, 3, 10, 11, 12, 2, 27, 12, 27, 28, 11, 27, 2, 3, 11, 2, 14, 0, 1, 12, 14, 1, 2, 12, 1 ],
				"vertices": [ 186.13, 210.1, 282.94, 278.51, 342.88, 193.69, 418.56, 86.59, 244.27, -36.57, 49.42, -174.26, -24.27, -69.98, -36.77, -52.29, -86.2, 17.66, 273.89, 12.3, 287.82, 63.75, 357.38, 149.32, 281.71, 223.29, 179.83, 192.83, 217.36, 219.91, 182.1, 72.49, 172.6, 45.24, 41.36, 57.07, 16.32, 58.05, -11.83, 50.85, -26.88, 34.62, -39.91, 3.37, 5.3, -81.2, 34.86, -82.35, 51.48, -77.33, 58.5, -70.87, 115.94, -70.24, 289.95, 153.35, 236.25, 159.36, 207.75, 5.27 ],
				"hull": 9,
				"edges": [ 6, 8, 8, 10, 8, 18, 18, 20, 20, 22, 2, 4, 4, 6, 22, 4, 4, 24, 0, 16, 0, 26, 0, 2, 24, 28, 28, 0, 26, 30, 30, 32, 32, 34, 34, 36, 36, 38, 38, 40, 40, 42, 14, 16, 42, 14, 10, 12, 12, 14, 12, 44, 44, 46, 46, 48, 48, 50, 50, 52, 52, 8, 22, 54, 54, 4, 54, 56, 56, 0, 56, 58, 58, 54, 58, 14 ],
				"width": 235,
				"height": 452
			}
		},
		"Wizard_arm_right": {
			"blue_arm_back": { "x": 133.59, "y": -25.78, "rotation": 30.58, "width": 293, "height": 269 }
		}
	}
},
"animations": {
	"animation": {
		"bones": {
			"bone": {
				"translate": [
					{ "time": 0, "x": 0, "y": 0 },
					{ "time": 0.5, "x": 1.09, "y": 26.51 },
					{ "time": 1, "x": 0, "y": 0 }
				]
			},
			"bone2": {
				"rotate": [
					{ "time": 0, "angle": 3.2 },
					{ "time": 0.5, "angle": 0.73 },
					{ "time": 1, "angle": 3.2 }
				]
			},
			"bone3": {
				"rotate": [
					{ "time": 0, "angle": 14.95 }
				],
				"translate": [
					{ "time": 0, "x": 0, "y": 0 },
					{ "time": 0.1667, "x": 5.9, "y": -1.91 },
					{ "time": 0.3333, "x": 0, "y": 0 },
					{ "time": 0.5, "x": 5.9, "y": -1.91 },
					{ "time": 0.6667, "x": 0, "y": 0 }
				]
			},
			"bone4": {
				"rotate": [
					{ "time": 0, "angle": 0.78, "curve": "stepped" },
					{ "time": 1, "angle": 0.78 }
				],
				"translate": [
					{ "time": 0, "x": 0, "y": 0 },
					{ "time": 0.1667, "x": 4.34, "y": 1.67 },
					{ "time": 0.3333, "x": 0, "y": 0 },
					{ "time": 0.5, "x": 4.34, "y": 1.67 },
					{ "time": 0.6667, "x": 0, "y": 0, "curve": "stepped" },
					{ "time": 1, "x": 0, "y": 0 }
				]
			}
		},
		"deform": {
			"default": {
				"Wizard_arm_left": {
					"blue_arm_front": [
						{
							"time": 0,
							"vertices": [ 77.44312, -25.57507, 0, 0, 53.78506, -93.58133, 0, 0, 0, 0, 0, 0, 0, 0, 0, 0, 0, 0, -19.69431, -43.96802, 1.73727, -55.53021, 32.5383, -95.40344, 73.33292, -69.46387, 70.41968, -20.97388, 78.54535, -40.48871, 16.65787, -9.42062, 0, 0, 0, 0, 0, 0, 0, 0, 0, 0, 0, 0, 0, 0, 0, 0, 0, 0, 0, 0, 0, 0, 41.36771, -65.83292, 49.64636, -42.57227 ],
							"curve": "stepped"
						},
						{
							"time": 1,
							"vertices": [ 77.44312, -25.57507, 0, 0, 53.78506, -93.58133, 0, 0, 0, 0, 0, 0, 0, 0, 0, 0, 0, 0, -19.69431, -43.96802, 1.73727, -55.53021, 32.5383, -95.40344, 73.33292, -69.46387, 70.41968, -20.97388, 78.54535, -40.48871, 16.65787, -9.42062, 0, 0, 0, 0, 0, 0, 0, 0, 0, 0, 0, 0, 0, 0, 0, 0, 0, 0, 0, 0, 0, 0, 41.36771, -65.83292, 49.64636, -42.57227 ]
						}
					]
				}
			}
		}
	}
}
}