%YAML 1.1
%TAG !u! tag:unity3d.com,2011:
--- !u!114 &11400000
MonoBehaviour:
  m_ObjectHideFlags: 0
  m_PrefabParentObject: {fileID: 0}
  m_PrefabInternal: {fileID: 0}
  m_GameObject: {fileID: 0}
  m_Enabled: 1
  m_EditorHideFlags: 0
  m_Script: {fileID: 11500000, guid: a6b194f808b1af6499c93410e504af42, type: 3}
  m_Name: a_win_C_blue_Atlas
  m_EditorClassIdentifier: 
  atlasFile: {fileID: 4900000, guid: 185fa58b95f3bf1418cc17809e6a378d, type: 3}
  materials:
  - {fileID: 2100000, guid: 2fad7094590da954389d9d139d871a60, type: 2}
