{
"skeleton": { "hash": "iIU3lkWP9zlYetegW8860uOZ3Tg", "spine": "3.6.53", "width": 4436.57, "height": 199, "images": "./images/" },
"bones": [
	{ "name": "root", "x": 3.79, "y": 3.8 },
	{ "name": "bone", "parent": "root", "x": 474.15, "y": 0.37 },
	{ "name": "bone4", "parent": "bone", "x": 4168.53, "y": 3.5 },
	{ "name": "water_shot_base", "parent": "bone", "length": 4140.35, "rotation": 0.11, "x": -7.59, "y": -7.59 },
	{ "name": "water_shot_front", "parent": "bone4", "length": 196.02, "rotation": -179.36, "y": -1.1 },
	{ "name": "water_shot_reflect 01", "parent": "water_shot_base", "length": 4125.88, "rotation": 0.02, "x": -4.41, "y": -0.07 },
	{ "name": "water_shot_reflect 02", "parent": "water_shot_reflect 01", "length": 4125.88, "x": -249.28 }
],
"slots": [
	{ "name": "water_shot_base", "bone": "water_shot_base", "attachment": "water_shot_base_rainbow_3" },
	{ "name": "water_shot_reflect 01", "bone": "water_shot_reflect 01", "attachment": "water_shot_reflect_rainbow_3" },
	{ "name": "water_shot_reflect 02", "bone": "water_shot_reflect 02", "attachment": "water_shot_reflect_rainbow_3" },
	{ "name": "water_shot_front", "bone": "water_shot_front", "attachment": "water_shot_front" }
],
"skins": {
	"default": {
		"water_shot_base": {
			"water_shot_base_rainbow_3": { "x": 2062.8, "y": 3.23, "rotation": -0.11, "width": 4163, "height": 88 }
		},
		"water_shot_front": {
			"water_shot_front": {
				"type": "mesh",
				"uvs": [ 1, 0.47157, 1, 0.81295, 1, 1, 0.56251, 1, 0, 1, 0, 0.64491, 0, 0, 0.41702, 0, 0.64543, 0, 1, 0, 0.18861, 0.11957, 0.80343, 0.04528, 0.97239, 0.26107, 0.75494, 0.96507, 0.11821, 0.96507, 0.48429, 0.86955, 0.26057, 0.78642, 0.5453, 0.67675, 0.30281, 0.47864, 0.66263, 0.47333, 0.07597, 0.23985, 0.33567, 0.18678, 0.50775, 0.05766, 0.44361, 0.03289, 0.63291, 0.03643, 0.38573, 0.26992, 0.72365, 0.2257, 0.56251, 0.55647, 0.86914, 0.54055, 0.356, 0.74751, 0.75806, 0.72274, 0.92077, 0.59892, 0.61727, 0.90316, 0.88478, 0.70328, 0.85975, 0.39727, 0.87826, 0.29891 ],
				"triangles": [ 23, 7, 8, 24, 23, 8, 11, 8, 9, 22, 23, 24, 10, 6, 7, 10, 7, 23, 10, 23, 22, 21, 10, 22, 11, 24, 8, 35, 26, 24, 20, 6, 10, 20, 10, 21, 12, 11, 9, 11, 35, 24, 25, 21, 22, 20, 21, 25, 26, 25, 22, 26, 22, 24, 12, 35, 11, 34, 26, 35, 12, 9, 0, 34, 35, 12, 0, 34, 12, 19, 25, 26, 19, 26, 34, 20, 25, 19, 18, 20, 19, 28, 34, 0, 19, 34, 28, 27, 18, 19, 27, 19, 28, 31, 28, 0, 5, 6, 20, 5, 20, 18, 17, 18, 27, 5, 18, 17, 31, 30, 28, 30, 27, 28, 33, 30, 31, 17, 27, 30, 29, 5, 17, 29, 17, 30, 16, 5, 29, 31, 0, 1, 33, 31, 1, 15, 29, 30, 16, 29, 15, 32, 15, 30, 32, 30, 33, 14, 5, 16, 14, 16, 15, 14, 15, 32, 13, 32, 33, 13, 33, 1, 4, 5, 14, 3, 14, 32, 4, 14, 3, 3, 32, 13, 13, 1, 2, 3, 13, 2 ],
				"vertices": [ -24.45, -2.61, -23.69, 65.32, -23.27, 102.54, 75.16, 101.44, 201.71, 100.03, 200.92, 29.37, 199.49, -98.96, 105.67, -97.91, 54.28, -97.34, -25.5, -96.45, 157.32, -74.69, 18.83, -87.93, -18.71, -44.56, 31.78, 94.98, 175.04, 93.38, 92.46, 75.29, 142.61, 58.18, 78.31, 37.08, 132.42, -2.95, 51.46, -3.11, 182.93, -51.04, 124.38, -60.95, 85.38, -86.21, 99.75, -91.3, 57.17, -90.12, 113.3, -44.28, 37.18, -52.23, 74.17, 13.19, 5.15, 10.79, 121.05, 50.68, 30.54, 46.76, -6.34, 22.53, 62.62, 82.31, 1.99, 43.21, 6.94, -17.74, 2.56, -37.27 ],
				"hull": 10,
				"edges": [ 12, 14, 20, 14, 14, 16, 16, 18, 16, 22, 22, 24, 0, 18, 24, 0, 0, 2, 2, 4, 2, 26, 4, 6, 6, 8, 26, 6, 6, 28, 28, 30, 30, 32, 8, 10, 10, 12, 32, 10, 10, 34, 34, 36, 36, 38, 38, 40, 40, 42, 42, 44, 44, 20, 20, 46, 46, 48, 40, 50, 50, 52, 36, 54, 54, 56, 10, 58, 58, 60, 60, 62, 28, 64, 64, 66, 52, 68, 48, 70 ],
				"width": 225,
				"height": 199
			}
		},
		"water_shot_reflect 01": {
			"water_shot_reflect_rainbow_3": { "x": 2111.09, "y": 2.61, "rotation": -0.12, "width": 4185, "height": 87 }
		},
		"water_shot_reflect 02": {
			"water_shot_reflect_rainbow_3": { "x": 2110.18, "y": 3.23, "rotation": -0.12, "width": 4185, "height": 87 }
		}
	}
},
"animations": {
	"animation": {
		"bones": {
			"water_shot_reflect 01": {
				"translate": [
					{ "time": 0, "x": 17.59, "y": 0 },
					{ "time": 0.2333, "x": -231.88, "y": -0.07 }
				]
			}
		},
		"deform": {
			"default": {
				"water_shot_front": {
					"water_shot_front": [
						{ "time": 0 },
						{
							"time": 0.1333,
							"offset": 10,
							"vertices": [ -18.11206, 1.38441, 0, 0, 0, 0, 0, 0, 0, 0, -16.60596, -4.93681, 0, 0, 0, 0, 0, 0, -21.69775, -2.12173, -0.51807, -5.46656, 0, 0, 2.72095, -1.39847, -14.95435, 1.74317, 6.29688, -7.82282, -16.53516, 1.36678, 0, 0, 2.84912, 10.00077, 0, 0, -4.41553, 12.81813, 0, 0, 6.96289, 10.86685, 0, 0, 11.83984, -1.5004, 0, 0, 3.64795, -0.04077, 8.25854, 4.46797, 0, 0, 7.84961, 8.57679 ]
						},
						{ "time": 0.2333 }
					]
				}
			}
		}
	}
}
}