{
"skeleton": { "hash": "Kvl7N9tMzZTG6JoS1kahLIRAVKk", "spine": "3.6.53", "width": 142.39, "height": 187.59, "images": "./images/" },
"bones": [
	{ "name": "root", "x": -61.71, "y": 177.14 },
	{ "name": "bone2", "parent": "root", "rotation": 85.03, "x": 59.91, "y": -185.38 },
	{ "name": "fire_centre", "parent": "bone2", "length": 150.85, "rotation": 6.1, "x": 13.4, "y": 13.55 },
	{ "name": "fire_right", "parent": "fire_centre", "length": 109.22, "rotation": -5.37, "x": 5.5, "y": -38.14 },
	{ "name": "fire_small_left", "parent": "fire_centre", "length": 45.48, "rotation": 7.69, "x": 71.82, "y": 43.21 },
	{ "name": "fire_small_middle", "parent": "fire_centre", "length": 67.46, "rotation": -12.26, "x": 71.71, "y": -16.91 }
],
"slots": [
	{ "name": "fire_right", "bone": "fire_right", "attachment": "fire_right" },
	{ "name": "fire_small_left", "bone": "fire_small_left", "attachment": "fire_small_left" },
	{ "name": "fire_small_middle", "bone": "fire_small_middle", "attachment": "fire_small_middle" },
	{ "name": "fire_centre", "bone": "fire_centre", "attachment": "fire_centre" }
],
"skins": {
	"default": {
		"fire_centre": {
			"fire_centre": {
				"type": "mesh",
				"uvs": [ 1, 1, 0.51424, 1, 0, 1, 0, 0.63982, 0, 0, 0.47819, 0, 1, 0, 0.12725, 0.96251, 0.16811, 0.48144, 0.36041, 0.3867, 0.60077, 0.18835, 0.71615, 0.18243, 0.54549, 0.40298, 0.54789, 0.63686, 0.77143, 0.74492, 0.68971, 0.90034, 0.21378, 0.86481, 0.23301, 0.6709, 0.38204, 0.55397, 0.46377, 0.77008 ],
				"triangles": [ 11, 5, 6, 10, 5, 11, 9, 4, 5, 9, 5, 10, 12, 9, 10, 12, 10, 11, 8, 4, 9, 18, 9, 12, 8, 9, 18, 14, 13, 12, 18, 12, 13, 3, 4, 8, 17, 8, 18, 3, 8, 17, 14, 11, 6, 14, 12, 11, 19, 18, 13, 17, 18, 19, 16, 3, 17, 16, 17, 19, 15, 13, 14, 19, 13, 15, 7, 3, 16, 2, 3, 7, 1, 19, 15, 16, 19, 1, 7, 16, 1, 2, 7, 1, 14, 6, 0, 15, 14, 0, 1, 15, 0 ],
				"vertices": [ 0.38, -63.64, -4.21, -10.89, -9.07, 44.95, 54.45, 50.47, 167.27, 60.28, 171.78, 8.36, 176.71, -48.31, -1.25, 31.71, 83.96, 34.65, 102.48, 15.22, 139.73, -7.84, 141.86, -20.28, 101.36, -5.13, 60.14, -8.98, 43.2, -34.91, 15.02, -28.42, 16.79, 23.81, 51.16, 24.69, 73.19, 10.3, 35.86, -1.88 ],
				"hull": 7,
				"edges": [ 0, 12, 4, 6, 6, 8, 14, 6, 6, 16, 16, 18, 18, 20, 8, 10, 10, 12, 20, 10, 10, 22, 22, 24, 24, 26, 26, 28, 28, 30, 0, 2, 2, 4, 30, 2, 2, 14, 2, 32, 32, 34, 34, 36, 36, 18, 30, 38, 38, 26 ],
				"width": 109,
				"height": 177
			}
		},
		"fire_right": {
			"fire_right": {
				"type": "mesh",
				"uvs": [ 1, 0.60849, 1, 1, 0, 1, 0, 0, 0.79086, 0, 1, 0, 0.18572, 0.9687, 0.51019, 0.98942, 0.81537, 0.85544, 0.82477, 0.34796, 0.66998, 0.32712, 0.40086, 0.28109, 0.57006, 0.43266, 0.23526, 0.54066, 0.44886, 0.62425, 0.45486, 0.74046, 0.35406, 0.86678, 0.6603, 0.76952, 0.68704, 0.55947, 0.84956, 0.53856, 0.5595, 0.3166 ],
				"triangles": [ 11, 3, 4, 20, 11, 4, 10, 20, 4, 9, 4, 5, 10, 4, 9, 19, 12, 20, 11, 20, 12, 0, 19, 9, 10, 9, 19, 19, 20, 10, 13, 3, 11, 13, 11, 12, 18, 12, 19, 0, 9, 5, 14, 13, 12, 14, 12, 18, 15, 14, 18, 17, 15, 18, 17, 18, 19, 17, 19, 0, 8, 17, 0, 15, 16, 13, 15, 13, 14, 16, 15, 17, 16, 17, 8, 13, 2, 3, 6, 13, 16, 7, 16, 8, 6, 16, 7, 13, 6, 2, 8, 0, 1, 7, 8, 1, 2, 6, 7, 2, 7, 1 ],
				"vertices": [ 50.43, -31.6, -0.8, -40.94, -13.36, 27.92, 117.48, 51.79, 127.42, -2.67, 130.04, -17.07, -6.93, 15.88, -5.57, -6.96, 15.8, -24.78, 82.31, -13.31, 83.1, -2.16, 85.74, 17.48, 68.03, 2.21, 49.69, 22.68, 41.44, 5.98, 26.31, 2.79, 8.52, 6.72, 25.09, -12.05, 52.91, -8.88, 57.69, -19.57, 83.08, 5.7 ],
				"hull": 6,
				"edges": [ 2, 4, 4, 6, 12, 14, 14, 16, 2, 0, 0, 10, 16, 0, 0, 18, 18, 20, 6, 8, 8, 10, 20, 8, 8, 22, 22, 24, 24, 26, 26, 28, 28, 30, 30, 32, 32, 12, 14, 32, 32, 16, 32, 34, 34, 0, 30, 36, 36, 24, 38, 40, 40, 8 ],
				"width": 70,
				"height": 133
			}
		},
		"fire_small_left": {
			"fire_small_left": {
				"type": "mesh",
				"uvs": [ 1, 0.47585, 1, 0.67678, 1, 1, 0, 1, 0, 0.37367, 0, 0, 1, 0, 0.52252, 0.94429, 0.61896, 0.44141, 0.83596, 0.02693, 0.78018, 0.79993, 0.4123, 0.45404 ],
				"triangles": [ 9, 5, 6, 4, 5, 9, 9, 11, 4, 8, 11, 9, 9, 6, 0, 8, 9, 0, 10, 8, 0, 1, 10, 0, 11, 8, 10, 7, 11, 10, 4, 11, 7, 3, 4, 7, 10, 1, 2, 7, 10, 2, 3, 7, 2 ],
				"vertices": [ 22.55, -7.34, 11.72, -6.82, -5.72, -6, -4.87, 11.98, 28.92, 10.38, 49.07, 9.42, 48.22, -8.56, -2.31, 2.45, 24.74, -0.57, 46.91, -5.54, 5.26, -2.56, 24.23, 3.17 ],
				"hull": 7,
				"edges": [ 4, 6, 10, 12, 4, 2, 2, 0, 0, 12, 0, 16, 16, 18, 6, 8, 8, 10, 18, 8, 8, 14, 2, 20, 20, 14, 20, 22, 22, 18 ],
				"width": 18,
				"height": 54
			}
		},
		"fire_small_middle": {
			"fire_small_middle": {
				"type": "mesh",
				"uvs": [ 1, 1, 0, 1, 0, 0.82162, 0, 0, 0.82773, 0, 1, 0, 0.57966, 0.97126, 0.44074, 0.84742, 0.58958, 0.56018, 0.87239, 0.44494, 0.922, 0.2695, 0.61935, 0.3727, 0.3167, 0.47074, 0.29189, 0.8113, 0.46554, 0.49998, 0.75827, 0.39162 ],
				"triangles": [ 10, 4, 5, 11, 3, 4, 15, 11, 4, 10, 15, 4, 9, 15, 10, 12, 3, 11, 14, 12, 11, 14, 11, 15, 8, 14, 15, 8, 15, 9, 12, 2, 3, 13, 12, 14, 13, 2, 12, 7, 13, 14, 7, 14, 8, 6, 7, 8, 13, 7, 6, 2, 13, 6, 1, 2, 6, 5, 0, 10, 9, 10, 0, 8, 9, 0, 6, 8, 0, 1, 6, 0 ],
				"vertices": [ 1.15, -20.97, -6.56, 3.86, 6.22, 7.83, 65.08, 26.08, 71.45, 5.53, 72.78, 1.25, -0.03, -9.89, 7.77, -3.69, 29.49, -1.01, 39.92, -5.47, 52.87, -2.8, 43.15, 2.42, 33.79, 7.76, 9.21, 0.81, 32.85, 3.41, 42.86, -1.45 ],
				"hull": 6,
				"edges": [ 0, 2, 0, 10, 12, 14, 14, 16, 16, 18, 18, 20, 6, 8, 8, 10, 20, 8, 8, 22, 22, 24, 2, 4, 4, 6, 24, 4, 4, 12, 12, 26, 26, 28, 28, 30, 30, 8 ],
				"width": 26,
				"height": 75
			}
		}
	}
},
"animations": {
	"animation": {
		"bones": {
			"fire_centre": {
				"rotate": [
					{ "time": 0, "angle": 0 },
					{ "time": 0.1333, "angle": 1.67 },
					{ "time": 0.2667, "angle": -1.6 },
					{ "time": 0.4333, "angle": 0 },
					{ "time": 0.5667, "angle": -1.58 },
					{ "time": 0.7, "angle": 0.94 },
					{ "time": 0.8333, "angle": 0 }
				],
				"translate": [
					{ "time": 0, "x": 1.09, "y": 0.12 },
					{ "time": 0.2333, "x": -0.36, "y": -0.03 },
					{ "time": 0.4333, "x": 1.09, "y": 0.12 },
					{ "time": 0.6333, "x": -0.36, "y": -0.03 },
					{ "time": 0.8333, "x": 1.09, "y": 0.12 }
				],
				"scale": [
					{ "time": 0, "x": 1, "y": 1 },
					{ "time": 0.2333, "x": 2.216, "y": 2.216 },
					{ "time": 0.8333, "x": 0.321, "y": 0.321 }
				]
			},
			"fire_small_middle": {
				"rotate": [
					{ "time": 0, "angle": 0 },
					{ "time": 0.2333, "angle": -5.15 },
					{ "time": 0.4333, "angle": 4.5 },
					{ "time": 0.6333, "angle": 7 },
					{ "time": 0.8333, "angle": 0 }
				],
				"translate": [
					{ "time": 0, "x": 0, "y": 0 },
					{ "time": 0.2333, "x": 41.97, "y": -3.93 },
					{ "time": 0.8333, "x": -69.74, "y": 17.31 }
				],
				"scale": [
					{ "time": 0, "x": 1, "y": 1 },
					{ "time": 0.2333, "x": 1.221, "y": 1.221 },
					{ "time": 0.8333, "x": 0.454, "y": 0.454 }
				]
			},
			"fire_right": {
				"rotate": [
					{ "time": 0, "angle": 0 },
					{ "time": 0.2333, "angle": 3 },
					{ "time": 0.4333, "angle": 0 },
					{ "time": 0.6333, "angle": 2.2 },
					{ "time": 0.8333, "angle": 0 }
				],
				"translate": [
					{ "time": 0, "x": -2.54, "y": 0.24 },
					{ "time": 0.2333, "x": 2.2, "y": 0.04 },
					{ "time": 0.8333, "x": -0.37, "y": 37.65 }
				],
				"scale": [
					{ "time": 0, "x": 1, "y": 1 },
					{ "time": 0.2333, "x": 1.135, "y": 1.135 },
					{ "time": 0.8333, "x": 0.737, "y": 0.737 }
				]
			},
			"fire_small_left": {
				"rotate": [
					{ "time": 0, "angle": 0 },
					{ "time": 0.2333, "angle": 5.16 },
					{ "time": 0.4333, "angle": -5.89 },
					{ "time": 0.6333, "angle": 6.24 },
					{ "time": 0.8333, "angle": 0 }
				],
				"translate": [
					{ "time": 0, "x": 0, "y": 0 },
					{ "time": 0.2333, "x": 24.7, "y": 6.5 },
					{ "time": 0.8333, "x": -68.99, "y": -41.32 }
				],
				"scale": [
					{ "time": 0, "x": 1, "y": 1 },
					{ "time": 0.8333, "x": 0.421, "y": 0.421 }
				]
			}
		},
		"deform": {
			"default": {
				"fire_centre": {
					"fire_centre": [
						{ "time": 0 },
						{
							"time": 0.1333,
							"offset": 10,
							"vertices": [ -1.11571, 9.77734, 0, 0, 0, 0, -4.48944, -7.1764, -1.17147, -3.35419, 2.49533, 4.04773, 4.79228, 4.66938, 2.6683, -3.20336, 0, 0, 0, 0, 0, 0, 0, 0, 0, 0, 0.27174, -8.76538 ]
						},
						{
							"time": 0.2667,
							"offset": 10,
							"vertices": [ 5.24209, -6.31768, 0, 0, 0, 0, -2.37676, -3.79927, -0.62019, -1.77575, 1.59388, 7.93185, -3.56854, 8.1768, 1.41263, -1.6959, 0, 0, 0, 0, 0, 0, 0, 0, 0, 0, 0.14386, -4.64049 ]
						},
						{ "time": 0.4333 },
						{
							"time": 0.5667,
							"offset": 10,
							"vertices": [ 4.80098, -13.54546, 0, 0, 0, 0, 0, 0, 0, 0, 1.13187, 6.36186, -5.93288, 7.18355 ]
						},
						{
							"time": 0.7,
							"offset": 10,
							"vertices": [ 1.05473, -1.89541, 0, 0, 0, 0, 0, 0, -0.18571, 2.13562, 0.2247, 3.98703, -1.8366, 4.31522, -0.18571, 2.13562 ]
						},
						{ "time": 0.8333 }
					]
				},
				"fire_right": {
					"fire_right": [
						{ "time": 0 },
						{
							"time": 0.2333,
							"offset": 8,
							"vertices": [ 1.14702, -2.28533, 0, 0, 0, 0, 0, 0, 0, 0, 2.2457, -6.1744, 1.27061, -6.14868, -0.44984, -5.99311, 0.94788, -7.47779, 0, 0, 0, 0, 0, 0, 0, 0, 0, 0, 0, 0, 0, 0, 0.58592, -6.17956 ]
						},
						{ "time": 0.4333 },
						{
							"time": 0.6333,
							"offset": 8,
							"vertices": [ 1.26686, 3.14971, 0, 0, 0, 0, 0, 0, 0, 0, -2.70788, 2.55654, 1.68861, -3.48786, -1.27868, -3.31348, 0.80627, 5.17236, 0, 0, 0, 0, 0, 0, 0, 0, 0, 0, 0, 0, 0, 0, 1.20412, 1.98707 ]
						},
						{ "time": 0.8333 }
					]
				},
				"fire_small_left": {
					"fire_small_left": [
						{ "time": 0 },
						{
							"time": 0.2333,
							"vertices": [ 4.27694, -4.02193, 0.0749, 1.57877, 0, 0, 0, 0, -4.83008, -3.11408, 0, 0, 0, 0, 0.0749, 1.57877, 0.82997, -3.79161, 0.55031, 7.2496, 0.0749, 1.57877, 0.0749, 1.57877 ]
						},
						{ "time": 0.4333 },
						{
							"time": 0.6333,
							"vertices": [ -2.95274, 1.10858, 0, 0, 0, 0, 0, 0, 3.35806, -2.68943, 0, 0, 0, 0, 2.64484, 6.59564, -0.52511, -0.24652, -1.04523, -2.5289, 0, 0, -2.12876, -6.18383 ]
						},
						{ "time": 0.8333 }
					]
				},
				"fire_small_middle": {
					"fire_small_middle": [
						{ "time": 0 },
						{
							"time": 0.2333,
							"offset": 4,
							"vertices": [ 4.50145, -0.07205, 0, 0, 0.28355, -6.17611, 0, 0, 3.36699, -3.6518, 7.24834, -1.32031, -2.57661, 0.86152, 0, 0, -3.98243, 3.03334, 1.20222, 4.72906, 0, 0, -0.03289, -1.47666, -1.73215, 5.09598, 1.41549, 3.06713 ]
						},
						{ "time": 0.4333 },
						{
							"time": 0.6333,
							"vertices": [ 0.03452, -0.11069, -1.3E-4, -0.29045, 7.07352, -0.64012, 0, 0, -1.48502, -15.49382, -0.03453, 0.11069, -2.86383, 5.98091, -1.14309, 2.72084, 0, 0, 1.7371, 1.7958, -2.61801, -2.06573, 2.77352, 2.86356, 0, 0, 0.97408, 2.31579, 0, 0, 0.41875, 3.88932 ]
						},
						{ "time": 0.8333 }
					]
				}
			}
		}
	}
}
}