%YAML 1.1
%TAG !u! tag:unity3d.com,2011:
--- !u!114 &11400000
MonoBehaviour:
  m_ObjectHideFlags: 0
  m_PrefabParentObject: {fileID: 0}
  m_PrefabInternal: {fileID: 0}
  m_GameObject: {fileID: 0}
  m_Enabled: 1
  m_EditorHideFlags: 0
  m_Script: {fileID: 11500000, guid: a6b194f808b1af6499c93410e504af42, type: 3}
  m_Name: a_fire_item_destory_I_Atlas
  m_EditorClassIdentifier: 
  atlasFile: {fileID: 4900000, guid: f3e70d0bb6ae7f849982e63079a16058, type: 3}
  materials:
  - {fileID: 2100000, guid: 25942177d81a211448b6c4267cbbbe95, type: 2}
