{
"skeleton": { "hash": "s8qRcvTbiG0VVcE0HvR/9dU0xOY", "spine": "3.6.53", "width": 101, "height": 175, "images": "./images/" },
"bones": [
	{ "name": "root", "x": -49.06, "y": 175.27 },
	{ "name": "water_centre", "parent": "root", "x": 47.69, "y": -122.65 },
	{ "name": "water_centre2", "parent": "root", "length": 18.92, "rotation": 89.35, "x": 47.59, "y": -122.7 },
	{ "name": "water_left", "parent": "root", "length": 85.85, "rotation": 89.32, "x": 43.8, "y": -122.95 },
	{ "name": "water_right", "parent": "root", "length": 67.05, "rotation": 75.43, "x": 45.34, "y": -120.4 }
],
"slots": [
	{ "name": "water_right", "bone": "water_right", "attachment": "water_right" },
	{ "name": "water_left", "bone": "water_left", "attachment": "water_left" },
	{ "name": "water_centre", "bone": "water_centre2", "attachment": "water_centre" }
],
"skins": {
	"default": {
		"water_centre": {
			"water_centre": {
				"type": "mesh",
				"uvs": [ 1, 0.41343, 1, 1, 0.59209, 1, 0, 1, 0, 0.59576, 0, 0, 0.74792, 0, 1, 0, 0.25037, 0.18092, 0.93756, 0.76805 ],
				"triangles": [ 8, 5, 6, 6, 7, 0, 4, 5, 8, 0, 8, 6, 9, 8, 0, 2, 4, 8, 2, 3, 4, 8, 9, 2, 9, 0, 1, 2, 9, 1 ],
				"vertices": [ 4.68, -21.76, -27.58, -22.12, -27.81, -2.14, -28.14, 26.87, -5.91, 27.12, 26.86, 27.5, 27.27, -9.15, 27.41, -21.5, 17.05, 15.12, -14.86, -18.92 ],
				"hull": 8,
				"edges": [ 10, 12, 12, 14, 12, 16, 6, 8, 8, 10, 16, 8, 2, 4, 4, 6, 8, 4, 4, 18, 2, 0, 0, 14, 18, 0, 0, 12 ],
				"width": 49,
				"height": 55
			}
		},
		"water_left": {
			"water_left": {
				"type": "mesh",
				"uvs": [ 1, 0.71966, 1, 0.86446, 1, 1, 0.66445, 1, 0, 1, 0, 0.75166, 0, 0, 0.54991, 0, 1, 0, 0.39877, 0.33246, 0.21105, 0.43806, 0.07423, 0.53166, 0.09491, 0.89646, 0.31605, 0.98446, 0.92377, 0.95166, 0.93173, 0.64286, 0.70264, 0.52286, 0.84582, 0.68526, 0.79173, 0.80446, 0.58332, 0.88926, 0.21264, 0.75166, 0.36218, 0.59966, 0.58173, 0.38559, 0.58968, 0.30719, 0.66445, 0.20159, 0.55309, 0.23519, 0.40832, 0.44959, 0.23332, 0.56159, 0.13628, 0.69839, 0.14423, 0.83999, 0.45138, 0.93912, 0.70434, 0.92632, 0.91274, 0.82712, 0.89365, 0.65832 ],
				"triangles": [ 24, 7, 8, 25, 7, 24, 23, 25, 24, 9, 6, 7, 9, 7, 25, 26, 9, 25, 25, 23, 26, 10, 6, 9, 22, 26, 23, 10, 9, 26, 15, 16, 24, 23, 24, 16, 22, 23, 16, 11, 6, 10, 27, 10, 26, 11, 10, 27, 21, 27, 26, 21, 26, 22, 8, 15, 24, 0, 15, 8, 33, 16, 15, 17, 16, 33, 28, 11, 27, 20, 28, 27, 20, 27, 21, 11, 5, 6, 5, 11, 28, 18, 16, 17, 0, 32, 33, 0, 33, 15, 17, 33, 32, 18, 17, 32, 29, 28, 20, 5, 28, 29, 32, 0, 1, 16, 21, 22, 19, 16, 18, 19, 21, 16, 20, 21, 19, 12, 5, 29, 31, 19, 18, 31, 18, 32, 30, 20, 19, 29, 20, 30, 30, 19, 31, 14, 32, 1, 31, 32, 14, 13, 29, 30, 12, 29, 13, 4, 5, 12, 3, 30, 31, 13, 30, 3, 4, 12, 13, 4, 13, 3, 3, 31, 14, 14, 1, 2, 3, 14, 2 ],
				"vertices": [ -1.18, -42.61, -26.52, -42.91, -50.23, -43.19, -50.59, -13.67, -51.28, 44.8, -7.83, 45.32, 123.71, 46.88, 124.28, -1.51, 124.75, -41.11, 65.95, 11.1, 47.27, 27.4, 30.75, 39.24, -33.06, 36.66, -48.23, 17.02, -41.86, -36.39, 12.19, -36.44, 32.95, -16.03, 4.68, -28.97, -16.24, -24.46, -31.29, -6.3, -7.6, 26.61, 19.15, 13.76, 56.84, -5.11, 70.57, -5.65, 89.13, -12, 83.13, -2.28, 45.46, 10.02, 25.68, 25.18, 1.64, 33.44, -23.13, 32.44, -40.16, 5.21, -37.65, -17.02, -20.07, -35.16, 9.44, -33.12 ],
				"hull": 9,
				"edges": [ 12, 14, 14, 16, 14, 18, 18, 20, 20, 22, 8, 10, 10, 12, 22, 10, 10, 24, 24, 26, 4, 6, 6, 8, 26, 6, 6, 28, 4, 2, 28, 2, 2, 0, 0, 16, 0, 30, 30, 32, 32, 34, 34, 36, 36, 38, 38, 40, 40, 42, 42, 44, 44, 46, 46, 48, 48, 14, 14, 50, 50, 52, 52, 54, 54, 56, 56, 58, 58, 60, 60, 62, 62, 64, 64, 66, 66, 32 ],
				"width": 88,
				"height": 175
			}
		},
		"water_right": {
			"water_right": {
				"type": "mesh",
				"uvs": [ 1, 0.5756, 1, 0.90899, 1, 1, 0.87061, 1, 0, 1, 0, 0, 0.45061, 0, 1, 0, 0.3451, 0.14967, 0.33293, 0.2695, 0.1909, 0.44509, 0.05496, 0.59102, 0.50945, 0.49255, 0.77119, 0.66221, 0.83003, 0.77017, 0.78539, 0.39289, 0.59467, 0.28018, 0.47496, 0.29441, 0.3309, 0.46526, 0.92539, 0.84848, 0.91727, 0.67407, 0.77119, 0.51034 ],
				"triangles": [ 8, 5, 6, 9, 5, 8, 16, 6, 7, 17, 8, 6, 17, 9, 8, 6, 16, 17, 15, 16, 7, 10, 5, 9, 18, 10, 9, 18, 9, 17, 12, 17, 16, 12, 16, 15, 18, 17, 12, 21, 12, 15, 15, 7, 0, 21, 15, 0, 11, 5, 10, 11, 10, 18, 11, 18, 12, 20, 13, 21, 12, 21, 13, 0, 20, 21, 14, 13, 20, 1, 19, 20, 14, 20, 19, 1, 20, 0, 11, 4, 5, 3, 14, 19, 3, 19, 1, 4, 12, 13, 13, 14, 4, 4, 11, 12, 14, 3, 4, 3, 1, 2 ],
				"vertices": [ 35.64, -46.59, -2.43, -56.49, -12.83, -59.19, -15.07, -50.55, -30.18, 7.59, 84.03, 37.27, 91.85, 7.18, 101.38, -29.51, 72.92, 9.78, 59.03, 7.04, 36.51, 11.31, 17.48, 16.06, 36.61, -11.37, 21.78, -33.88, 10.47, -41.02, 52.79, -26.84, 62.35, -10.76, 58.64, -3.19, 36.63, 1.37, 3.18, -49.71, 22.96, -43.99, 39.12, -29.38 ],
				"hull": 8,
				"edges": [ 8, 10, 10, 12, 12, 14, 12, 16, 16, 18, 18, 20, 20, 22, 22, 24, 24, 26, 26, 28, 4, 6, 6, 8, 28, 6, 4, 2, 6, 2, 2, 0, 0, 14, 0, 30, 30, 32, 32, 12, 12, 34, 22, 36, 6, 38, 38, 40, 40, 42 ],
				"width": 69,
				"height": 118
			}
		}
	}
},
"animations": {
	"animation": {
		"bones": {
			"water_centre2": {
				"rotate": [
					{ "time": 0, "angle": 0 },
					{ "time": 0.2333, "angle": -268.58 },
					{ "time": 0.4333, "angle": -179.81 },
					{ "time": 0.6333, "angle": -89.61 },
					{ "time": 0.8333, "angle": 0 }
				]
			}
		},
		"deform": {
			"default": {
				"water_centre": {
					"water_centre": [
						{ "time": 0 },
						{
							"time": 0.2333,
							"vertices": [ -0.23747, 1.98334, 0, 0, 5.01554, -0.06715, 0, 0, 1.00289, -3.97379, 0, 0, -7.10438, 1.81128, 0, 0, -0.67231, -0.91508 ]
						},
						{
							"time": 0.4333,
							"offset": 4,
							"vertices": [ 1.56712, 2.12455, 0, 0, 0.56475, -4.61564, 0, 0, -6.86067, -0.45065 ]
						},
						{
							"time": 0.6333,
							"vertices": [ -1.56102, -5.02315, 0, 0, 5.63672, 7.02724, 0, 0, 6.22739, -1.68562, 0, 0, -6.86067, -0.45065, 0, 0, 2.13191, -4.34625 ]
						},
						{
							"time": 0.7333,
							"vertices": [ -1.25841, -0.66138, 2.32218, 2.05044, 5.34957, 4.09826, 2.36962, -2.12267, 3.79934, -3.04373, -2.3145, -2.1759, -6.01116, 0.70478, -2.36191, 1.99721, -0.34123, -3.44082, 1.23866, 1.77751 ]
						},
						{
							"time": 0.8333,
							"vertices": [ -1.67686, 8.13372, 9.05726, 8.2557, 9.13283, 1.60531, 9.24253, -8.04775, 1.84495, -8.13181, -9.05727, -8.2557, -9.19582, 3.93803, -9.24253, 8.04775, -5.79285, -4.13614, 4.82414, 7.18942 ]
						}
					]
				},
				"water_left": {
					"water_left": [
						{
							"time": 0,
							"offset": 14,
							"vertices": [ 1.9581, -7.81018 ]
						},
						{
							"time": 0.1667,
							"vertices": [ -0.64626, 1.86446, -0.60169, -1.8793, 0, 0, 1.57322, -8.85806, 0, 0, -13.59791, -0.0439, 0, 0, -16.64106, 11.94133, 0, 0, -3.88834, 24.51099, -12.7211, 14.37014, -14.19216, 13.34966, -12.55714, -3.33266, -2.09324, -8.94514, 0.89879, 3.13092, 9.50377, 7.97125, -14.22744, 17.46525, 5.97918, 0.09828, -1.22566, -1.88671, -0.0434, -3.24482, -7.8744, -0.38949, -6.59406, 12.53166, -2.83217, 22.18691, -3.30539, 22.97564, -10.76843, 29.00153, -15.04726, 29.28534, -6.45717, 17.24397, -9.83136, 11.30412, -11.1694, 4.46786, -9.96907, -2.21921, -1.93633, -5.81809, 4.005, -4.30316, 0, 0, 5.7021, 5.69718 ]
						},
						{
							"time": 0.3,
							"vertices": [ 11.87948, 11.85965, 8.50641, 12.12104, 0, 0, -0.2267, -10.74719, 0, 0, -55.39838, 1.9505, 0, 0, -37.4488, 51.39656, 0, 0, -41.46967, 65.03983, -59.09961, 44.32851, -64.10205, 22.21606, -40.82354, -16.47938, -21.9971, -19.68378, 9.76758, 4.18634, 2.1623, 20.88127, -24.71097, 28.93041, -1.02963, 13.24725, -3.44959, 11.92115, -12.70952, -0.08742, -39.52308, 3.36148, -43.90282, 30.19184, -40.15918, 55.92198, -36.89934, 66.62398, -38.58898, 70.27741, -36.95791, 73.20344, -46.46772, 45.44207, -51.47715, 27.68666, -50.56831, 8.8964, -43.09987, -7.86244, -19.71141, -12.10861, -5.11133, -4.29721, 10.30426, 2.73753, 2.12213, 19.48744 ]
						},
						{
							"time": 0.4333,
							"vertices": [ -14.53487, 49.62749, 47.24489, 48.48964, 0, 0, 70.83885, -18.62603, 2.9038, 0.03458, -42.64677, -95.09383, 0, 0, -126.66164, 66.90998, 0, 0, -113.87627, 43.119, -126.59923, -11.13941, -106.77736, -59.49373, 7.4585, -96.11115, 46.88613, -71.24644, 70.09325, 27.08187, -25.52048, 22.03083, -18.44582, -6.90643, -16.29817, 21.72103, 23.66654, 26.95163, 32.04959, -19.18078, -30.96867, -61.94283, -85.79564, -26.06997, -115.28333, 25.70605, -116.08177, 44.08147, -118.46425, 62.10052, -122.76708, 51.69215, -107.65518, 19.09342, -103.51642, -30.58052, -51.6778, -68.03031, -7.34029, -82.25504, 40.26093, -45.19515, 50.18468, -4.36102, 23.70777, 48.35824, -21.16607, 22.70667 ]
						},
						{
							"time": 0.5667,
							"vertices": [ -1.8165, 41.49202, 31.82803, 57.2342, 66.51118, -6.84381, 68.53517, 14.33097, -15.01161, -64.38676, 7.90318, -75.31638, -129.44397, 97.73203, -164.56393, 16.80939, -47.92167, 155.2752, -105.8911, -31.56568, -75.34421, -51.75256, -50.86052, -67.70392, 44.02267, -61.18404, 67.19235, -30.40528, 53.78043, 49.16531, -1.70302, 39.70436, -19.02934, 37.60398, 0.50403, 31.88236, 16.00352, 34.25041, 40.07123, 2.82268, 7.10741, -47.39554, -34.98386, -28.76461, -87.84371, -5.93798, -102.99483, -2.29548, -125.03831, 6.75603, -130.71307, -8.16362, -73.83241, -24.81549, -43.56216, -46.58228, -7.24266, -57.82138, 29.7444, -55.19885, 53.94854, -13.70209, 49.18478, 19.42106, 14.23859, 43.41499, -2.16278, 36.63997 ]
						},
						{
							"time": 0.7333,
							"vertices": [ 6.0065, 40.86556, 30.15324, 50.83645, 74.10285, 17.81453, 61.9691, 16.10754, 39.66607, -66.30331, 21.11367, -62.29025, -157.29352, 30.17525, -138.52655, -16.63171, -122.85685, 114.29325, -69.64936, -26.25824, -44.86234, -45.62556, -24.61753, -58.48, 48.58612, -48.98786, 63.56755, -22.06302, 48.10356, 44.48714, -3.97375, 39.14878, -28.29365, 29.22005, 1.85043, 30.67282, 19.18202, 29.06982, 40.66973, 5.07971, 18.32926, -38.66072, -15.0504, -25.02634, -61.06949, -5.08238, -76.60149, -5.99128, -99.47927, 0.27592, -90.8337, -11.3823, -45.60998, -23.09484, -20.61749, -40.23857, 8.30229, -48.23004, 36.74432, -44.47453, 52.5029, -8.38448, 46.43924, 19.42116, 21.53783, 38.073, -2.36738, 35.47667 ]
						},
						{
							"time": 0.8333,
							"vertices": [ 5.19005, 41.40789, 32.43067, 47.55108, 58.80835, 23.40457, 59.45965, 13.10477, 40.62194, -52.89577, 12.60147, -57.47828, -120.58638, 7.19124, -135.54424, -3.96522, -102.40007, 83.49168, -70.3912, -17.68574, -49.04447, -37.37002, -30.66589, -50.78578, 40.35812, -46.76601, 57.36477, -22.91431, 49.30841, 40.42835, -5.05352, 36.87782, -25.04674, 23.40697, 1.22481, 29.28292, 20.86985, 27.39018, 38.04337, 4.18121, 12.22949, -35.27338, -18.09792, -20.20877, -60.25924, 1.50109, -75.40356, 1.6941, -96.45337, 9.15516, -89.45906, -2.3837, -47.31974, -16.36313, -25.08995, -34.05065, 1.80764, -43.45852, 29.41261, -41.86767, 48.07957, -9.23683, 45.03096, 17.12953, 23.40891, 37.51513, -3.0537, 33.66161 ]
						}
					]
				},
				"water_right": {
					"water_right": [
						{ "time": 0 },
						{
							"time": 0.1667,
							"vertices": [ 5.75532, 16.10226, 16.56372, 9.92479, 17.47203, 4.07019, 12.94172, 1.62252, -0.31564, -13.7443, -30.78086, 16.67525, -14.90163, 8.35452, -12.99316, 34.48964, -22.00853, 9.29246, -27.30318, 12.28628, -34.01859, 4.2972, -21.7476, -9.81755, -11.2141, 20.89152, 1.65169, 10.679, 9.12799, 6.90879, -12.45961, 17.32115, -15.82306, 17.0176, -13.36312, 16.18036, -20.38605, 11.72614, 11.52878, 7.35014, 6.07108, 12.51089, -1.51544, 14.88902 ]
						},
						{
							"time": 0.3,
							"vertices": [ -6.44876, 55.81012, 39.06522, 37.45535, 42.9957, 28.13012, 46.0321, 18.95967, 7.84273, -29.51387, -90.73699, 30.6027, -57.87785, 45.96156, -55.58399, 88.24678, -73.36778, 29.70827, -62.46975, 13.65724, -51.78512, -2.57644, -31.34143, -20.12913, -30.17956, 30.03161, -0.99757, 39.85828, 12.64198, 28.06249, -29.33788, 44.07763, -44.36934, 40.61314, -45.01759, 40.28197, -40.89406, 10.55186, 27.0377, 33.033, 2.48624, 42.48353, -17.01218, 43.41692 ]
						},
						{
							"time": 0.4333,
							"vertices": [ -59.67805, 79.32746, -4.83311, 114.14639, 71.85461, 79.06738, 18.04131, 111.20464, 58.32474, -49.50681, -161.55566, -26.36875, -112.75878, 48.93395, -148.02582, 102.20535, -111.87059, 16.20992, -94.01489, 4.17519, -61.10584, -12.12263, -30.85789, -32.97768, -43.38218, 23.46509, -31.45627, 66.36224, -17.28849, 83.29826, -76.62892, 39.60075, -90.54045, 37.90543, -90.39379, 27.88622, -54.777, 5.41108, -10.23062, 100.64964, -38.42605, 81.65411, -56.43899, 50.50166 ]
						},
						{
							"time": 0.5667,
							"vertices": [ -55.80454, 58.08302, -9.36717, 84.05447, 3.0365, 93.78808, 10.45127, 84.1959, 52.31177, 13.8944, -84.31802, -70.3733, -103.63817, -35.55687, -133.59323, 9.52036, -82.57094, -28.61343, -59.37234, -16.80079, -23.78701, -10.39948, -4.32479, -8.54965, -36.86688, 8.28474, -31.00813, 47.28651, -21.14644, 60.87731, -67.8134, 27.0538, -75.99588, 0.57645, -67.4959, -7.6177, -31.35764, -3.40363, -13.98924, 75.05882, -37.4184, 59.71362, -52.59013, 34.24524 ]
						},
						{
							"time": 0.7333,
							"vertices": [ -35.41349, 38.20135, -4.50608, 45.46071, 3.32948, 47.91063, 4.91087, 41.06869, 17.20414, -5.48575, -74.11141, -29.21343, -80.07415, -5.1861, -87.98608, 24.18296, -66.59711, -7.66035, -58.34689, -4.59862, -41.48251, -7.58099, -25.33012, -14.0387, -36.91402, 11.03662, -23.5366, 28.79907, -15.75084, 33.46046, -50.26845, 22.6274, -57.01808, 9.53196, -53.81672, 3.13327, -39.67432, 0.10564, -9.47154, 40.33144, -25.28491, 35.75983, -38.20893, 24.07446 ]
						},
						{
							"time": 0.8333,
							"vertices": [ -35.42166, 38.87151, -3.7925, 46.39611, 4.3007, 48.8713, 5.94895, 41.8482, 18.52558, -5.87291, -75.09496, -30.19953, -86.52725, -6.93412, -89.31985, 24.54469, -67.21915, -8.04883, -58.40037, -5.01919, -40.96665, -8.13162, -24.525, -14.41717, -36.86902, 10.89521, -23.34488, 29.13613, -15.20432, 34.04643, -50.50699, 22.87664, -57.53989, 9.4805, -54.28798, 2.96367, -39.35322, -0.21729, -8.82344, 41.10079, -25.03597, 36.41379, -38.28623, 24.43346 ]
						}
					]
				}
			}
		}
	}
}
}